<?xml version="1.0" encoding="UTF-8" standalone="no"?>
<!-- Created with Inkscape (http://www.inkscape.org/) -->

<svg
   xmlns:ns0="http://www.iki.fi/pav/software/textext/"
   xmlns:dc="http://purl.org/dc/elements/1.1/"
   xmlns:cc="http://creativecommons.org/ns#"
   xmlns:rdf="http://www.w3.org/1999/02/22-rdf-syntax-ns#"
   xmlns:svg="http://www.w3.org/2000/svg"
   xmlns="http://www.w3.org/2000/svg"
   xmlns:xlink="http://www.w3.org/1999/xlink"
   xmlns:sodipodi="http://sodipodi.sourceforge.net/DTD/sodipodi-0.dtd"
   xmlns:inkscape="http://www.inkscape.org/namespaces/inkscape"
   id="svg3522"
   version="1.1"
   inkscape:version="0.48.2 r9819"
   width="750"
   height="450"
   sodipodi:docname="stage2.svg">
  <sodipodi:namedview
     pagecolor="#ffffff"
     bordercolor="#666666"
     borderopacity="1"
     objecttolerance="10"
     gridtolerance="10"
     guidetolerance="10"
     inkscape:pageopacity="0"
     inkscape:pageshadow="2"
     inkscape:window-width="1680"
     inkscape:window-height="988"
     id="namedview3524"
     showgrid="false"
     inkscape:zoom="1.8933333"
     inkscape:cx="425.22762"
     inkscape:cy="272.33267"
     inkscape:window-x="-8"
     inkscape:window-y="-8"
     inkscape:window-maximized="1"
     inkscape:current-layer="svg3522" />
  <metadata
     id="metadata3528">
    <rdf:RDF>
      <cc:Work
         rdf:about="">
        <dc:format>image/svg+xml</dc:format>
        <dc:type
           rdf:resource="http://purl.org/dc/dcmitype/StillImage" />
        <dc:title />
      </cc:Work>
    </rdf:RDF>
  </metadata>
  <defs
     id="defs3526">
    <pattern
       patternTransform="matrix(10,0,0,10,-446.1875,-32.71875)"
       id="pattern5300"
       xlink:href="#Strips1_1"
       inkscape:collect="always" />
    <pattern
       inkscape:collect="always"
       patternUnits="userSpaceOnUse"
       width="2"
       height="1"
       patternTransform="translate(0,0) scale(10,10)"
       id="Strips1_1"
       inkscape:stockid="Stripes 1:1">
      <rect
         style="fill:black;stroke:none"
         x="0"
         y="-0.5"
         width="1"
         height="2"
         id="rect4497" />
    </pattern>
    <pattern
       id="pattern5297"
       patternTransform="translate(446.1875,32.71875)"
       height="351.3125"
       width="172.03125"
       patternUnits="userSpaceOnUse">
      <rect
         style="fill:url(#pattern5300);fill-opacity:1;fill-rule:nonzero;stroke:#ff0000;stroke-width:1;stroke-miterlimit:4;stroke-opacity:1;stroke-dasharray:none;stroke-dashoffset:0"
         id="rect3008"
         width="171.05013"
         height="350.31665"
         x="0.4848938"
         y="0.48661423" />
    </pattern>
  </defs>
  <image
     y="0"
     x="0"
     id="image3530"
     xlink:href="data:image/png;base64,iVBORw0KGgoAAAANSUhEUgAAAu4AAAHCCAIAAAA/+dtNAAAAA3NCSVQICAjb4U/gAAAgAElEQVR4 nO2d27KkIAxFYer8/y87D7YYICBeQMC16tRMt4Ii2hCTDdhlWQwAAADAmPx7uwAAAAAA18GUAQAA gIHBlAEAAICBwZQBAACAgcGUAQAAgIHBlAEAAICBwZQBAACAgcGUAQAAgIHBlAEAAICBwZQBAACA gcGUAQAAgIHBlAEAAICBwZQBAACAgcGUAQAAgIHBlAEAAICBwZQBAACAgcGUAQAAgIHBlAEAAICB wZQBAACAgcGUAQAAgIHBlAEAAICBwZQBAACAgcGUAQAAgIHBlAEAAICBwZQBAACAgfl7uwDVsdYa Y5ZlSe1aURMAAABA51Q3ZaS5cJb75kXm7MGujMUDAAAA3TKzV+bQjpGGyx2TCwAAAN6ikSlz1tuB YQEAAAAlTCv7PZTIBLvWr5hQAAAAY1HdK3NNfYJmBQAAAEqY0yuDhhcAAOAjvCz7rTEcmiARAADA d2hkyqgmSzwc+kE/yrMuGcwjAACYg/lCFi1MGXUGl5WUWXPzXDXuU4N7f9OYK89ekjKTJrUr3n5t SyXunOhU3sPEj9StujHYQt2W7Jq4bk9lv1O3qb3UbXnKlk1uSZnHot0UebHVIut3WRZr7VNPcHyr UM8AAABMSXXjV7UhyjdeO10KOeJafVdIFaDZW8IHoW7rQd3Wg7qtB3VblSmrd7bZfksMFNUDhNsG AABgROYcjD0oN0OY5dlLUpYvX5XZXrKlGXdOfSrvYeJH6lbd+Fb1Urf16KdZyCcorEZ1I3WbTzNo k9uS2QJMhQUw2g0+q2gDAAAYiym7s+96ZdSFCwAAAGAsZtPKxGRsFMwXAACA0Xlhirz8RgAAAIBy vhtg6pBvatCaWbQflKZStyW7Jq7bU9n7kf1+sG7zaZD9HjKh/KcGU+qkAADga0zZneGVAQAAgIHB lAEAAICBabcGUyHzOb4AAACgHnhlOuKbGrQhJH5IU/NQt/Xop1lA9ns5e1dN7pS0lv/k597t1iUz pU4KAAC+xpTdWVOvTMZekWtWAwAAABRCgAkAAAAGBlMGAAAABgZTpiO+qUEbQuKHNDUPdVuPfpoF ZL+Xs3fV5E4Jst8iptRJAQDA15iyO3tnZeyP2IkAAABQm9YBpmVZUvbgfHYiAAAA1OYdrwxWCwAA ADwCst+O+KYGbQiJH9LUPNRtPfppFpD9Xs7eVZM7JdXlP9f0vL2pgKfUSQEAwNeYsjvDKwMAAAAD 00gr8xEfFwAAADQGrwwAAAAMTHVTZrlB7bL1xjc1aENI/JCm5qFu69FPs4Ds93L2rprcKZlQ/lOD KXVSAADwNabszggwAQAAwMBgygAAAMDAYMoAAADAwGDKdMQ3NWhDSPyQpuahbuvRT7OA7Pdy9q6a 3CmZUP5Tgyl1UgAA8DWm7M7wygAAAMDAvGPK2A339ZViAAAAwOg0WrjAkY/5zef1AgCAA6w1NP5w g3e8MoHJggWz8k0N2hASP6SpeajbevTTLBzLfst+3TdP9CD91G0+DbLfQ5rKf6TrJXbD9OyYmVIn BQDwJKecKzJx6jNUYMruDNkvAABcJfXSf+gMWBYlDXYMXAJTBgAAds5FJO5YJDLvGp/CjoFL9GLK fCSeBwAwFgdt82p/yERBtCiPzIsdA1dpaspIlYzEbZkvgHeKb2rQhpD4IU3NQ93Wo59mIZfAWSTW mmU5tn7k3+H2avRTt/k0yH4PeUH+k6rZnu2YKXVSAAABa/MsWztrzWJstEmLK7n9ZlmM72tJuV7k QVzK9eA0uXWYsjt7IcCkVuJ8NQsAMAbOoRJtU5IZE5ga1mittzc6VUujKmxUC+YbfgW4Q+sp8lYw XAAAXuGWv0M4baw1i+ab+VktUs9rFvUIe1EyxgrjtKGAd0wZAAB4ky2OY81izBoO2oNCgZsmsCCs 87EIE8QLKkVfPYKBS3HB5AeXGCMG0jQNMNkyWhapK76pQRtCPok0NQ91W4+yX+v57CJItBi7LGYx Nml8bEGi9e+wPGeLmztmqvxP1P83m9wpeWG230K6CkJNqZMCgDk4FXjZE1trnPtks2yCRnr3iUQe F+d3KTRugiOsB/fKUHQUBm/fZcrurGmAaVmW1OoEcvtHrEgAgNZsypU1SLSaFDYKMHnJ1w9m0VP4 LCL65NInbR3VH5Y3axLSY2Q0H6d1gMlkRzBh0AAAPInakG4bkyZM5njO+jEmjjfFX3ddzRafymfJ n/cHVgv4IPsFAJgKNxOMVQwVzxD5pd8+BD6VeMsDQplicu4ZKQ1WB29j63yMXhYuAPNVDVpX8slH 8iJNrZeXuo13H275qXqXY+9LbKm0tF2un1de8hk75ptN7pS8IPtNnTGOLvUjTZpSJwUAI1LYN3kC WU2z4jbGzphOCMTFymDvXX9sUQQXMmV39s4aTCnLcb76BQB4nHXgdOBo+W0MJofJEkSaOuGEdme9 Rvfv2oPQj3yP17Qyh840zBoAAGOM53gI9gRiWGtjBUyYLLuxB4JLOFFOadms0I98g9amTGp0EoYL AECOPYCy6JJY22mc6CnioU97jElyuBgCTMc7st8lIt77SsHe5ZsatF7kk8/lRZpaL++H6nY7fu5E QZGmtmNWZBDtZ8ypwueyu/PNJndKJpT/1GBKnRQAdI2LKMkPm8kSK3m7Ve8+i6oCTqdmDr2QKbuz vuaVmbKKAQB0Mv1rMCQnftvuZuB0Y1Qx0EpuumJ6lql5wZT5iL8LAKAUa62vGPzNcvcZA6Wcc16Z Xx7qcHJaa2XydgwuGQCYnMN3OSH1cLGk/LLVn8ItfXB9Gj2YjnfWYHImiyr7/Szf1KAhTS3Z1ak0 9YkTfa5uXdhIPYJaGG3pInAc14yr8Ed/IIM2uVPy2my/8eQxPU8ng4gHAJ4kmqP2F2Cy+w6XNpjl 1m3EuHHIeYETKXwB9YeZsjt7bQ0mlr8GgA+yTQ2j+WbSGlWsljxF9RMoqWEiWE4SAKACmflODic+ 0SaMCWJMGDfnCAxHDJq56GswNgDAtAiXQH4lAcyUa5wb1mSIN83D+8tJ2o2WJemTb2rQkKaW7EL2 W5j45bpNnd2PHMk57sw2QClVbHiezUNj5dcrhxmyyZ2SF+Q/gbxXVnS3WqQpdVIA8DzuRT/+sO1f cbrdeN5euM+BBHi9DYlFOudmyu7shQBTvOJS+zIAAFQh6B0LekqMmBrIoV7RPqGYoQOaArQyAACP YddB1XsII+kdwIKpTdF4deeegZFpasrkZ47peV4ZAICQwPvywxvuq04JI9IRYKrFuXl3MGgGh8HY HYHstypIU+sxf91GQxOUXMvy6wtlj7gsZtHn6pXjlbBjHudEla437vyUM4M2uVNSXf5zth779MpM qZMCgFJUDa/2eX+9t9Ysyzf6ka45Hh0mVcAfYMrurLpX5lSVzVe/ADAqqhmivrsH06/ljwBtOXZ6 fcmOmZUWWplg3DX2CgAMgDpS11q5/SfrXZbfB2uN8aNLzJXfB6k1rWAOmsp+MWIAYCRSI6uDeXvt 9sHsCV2PiR3TA8fmi7xPdFWj8YLsV53q9yPSpDzIfqsyvzQV2W+Nug3WfbT297fh5uqVneWy8Orf F2uY6VgLfMaIGbTJnZLW8p/MVL+mY7fNlDopADBGmyct2/rLhX5ctMmcHf0L73FgZc7e1E/ZnTX1 yqTsmJRlAwDwAi6K5MZXG2PWEFLUB7AG5ECw3NWsvD+vzGrHzGckAkC/qG9NfuQoTBnMFuM+JrpG es0OKYox8UY9IO+bMgAArYmGFen9lximGwpmtk4x1TXipOmWImsGg2YoXjNliCXFIPutyszS1MQW 6jazyxptkLQ0cZwdI0W++3S+x04XrJlRWZRIYsygTe6UNJX/SK1MPMdMz7POTKmTAvgQkbb3t0GM qf5NAmOioJK1ZrNLNpXvvgUG5bPi3ym7s9bzyqTGXfdsxwDAPOztT3re3vWjWRa7DkoKJozBiJkB ORINRqd1gEkaK4Hhgh0DAE9hbUL/Ild8TA9HUr/CNByIsgPnHHTPC1qZZSPY2L4kADAzqfWS/Nl7 1SHWvwNoc9/BBByvyhTPNgQdwwimjkD2W5URpan57ch+jxPIFQZE/+TiRN64pG1EUjA6KVqRAGag dJnJ3P4hm9wpmVD+U4MpdVIAExM4X8qJZ/JlGt/pOQ42TcSU3VlT2S8AwFPkIgDW+qpeReDphizZ 37Ds3WQpN1ywcoamSPZLpGkEMGUAYDqWxVhjnQbP+mOtzW+jMZvR89sQhZOOLBvsmMnBiBkETBkA GJ5UCElu/3lgjHH/s3zSx5H3XffQiOmeoWeQ/XYEst+q9CtNLdiF7DeZ+Dcl1f5dztS6GOsvB7k4 qS+AJGfOnvlVXk6J7PcOE8p/ajClTgpgaPbpesWgpEDqK+cH2X/Bdhe4IOwFh3sYoh1TPRtTdmeP BZgKTb/5ahAAWpNVYnpBJf0zrRB4MO3v6KCVAYAB8N+Vfl2PDWewM0bzxOxLKom1k6QnBpfMxznw zKGY6Z7HTJn8wpAssQQAd5DhIaHfNS5A9Btt5Js14dczo5PgU/AkDM3zsl/VapGrYUMKZL9VQfZb j+p1K2fs9TevMt5MP8QLFDzDjbarqyZ3Sp6X/6QcMEM7ZqbUSQGMhJPnnnyBVhdiAsigS2dm6QKm 7M5qDcZ+6+0QAOZBthtuFQGf34qPy55qSa4O6WecrTGHx3DrcHnrNFmLUdwtz8t+l2VZDZfYfJnP EgSARlix8KO+V29eSmbPAwiY2zEzH1VGMDlrJthY41wAMBWB62WfAyZhqfjqXQwUeAQ585DYylCm TqkVYFoiKp1oJpD9VgXZbz2erNtA27L8Bk7LP7Enfnu2QYCJtgcuk58ub9Amd0omlP/UYEqdFEC/ +CLfvUcR4663mUCYqBfqos9cNCxTdmdVAkwZM3C+GgSAA7KT8+r4vhkhvTTGjyVhx0Bt9NUMoCee N2UGcmfJomJjAbxMEB2j/4Bu4GnsnFoLF/RvGaiqgv6LDTAGKU9MxkPjq31NSnqJJwZe54KjEWpS S/bbOc5w6UqVjOy3Ksh+66GcSJ2ZTusArD9dx/otMFb0eT4AXiEx93Q2R0dN7pS0m+23K86uEjWl TgqgOk69G01w532LBmC7VZZW3DKQiHzhXX4OwpG7gym7s+e9Mv0vt8QqUQDVcTNwuKntglWqZVq5 EqTqupez+a7/a8IF1AyvMF23mOPnF6Sn6IyKsl/VLJjPGAQAD/fDD1qAcPuiGC1HEoT9GJpvpmeH zVP+pA79Uh/s1v3F2eF9asl+AeCjROrdxK7ffumssQnHihVjsAflKfujNzvms1hezHuiSoApw+On mwlkv1VB9luPWyf62Snfe7V/GtrXNrhZpwdtcqfkoyOYLmB93MYgzZ2vsQz51FeX/ZETqeKh/IkC 1BPFeTMnevbrnROdynuYOF6k7DCvesvixMGRMyd69qt3ot8YJG0Z4cyu9ThiXQI4y1t91tdMKDeM TsjW+21yTaLzmowJlcyHpAYrZQYxTSn5BngWfVCS/Q0+KjnCWSGIOuIboAHjDmWasjvDKwMAFXB2 jFwPcjlo+VN2TNJbI4JTnXt0LpctyCi/7itrGht/VT/cpOcahi+D7BcACjgaW3SYJSXpLTpSwsT5 jeIW/3bL5eLFswXGn4MayHzIICcAKizMl/lVBbP+9kEjr0xJrK5ZGK8kJPkKNy9/UA1as9jtnROd ynuY+JG6VTfmY/b1UE4Ubfl4i3/Dn6F4ZfZ5dp5zk7g79vE7dYrCuuqqyZ2SFjEztSpPSVUqFYnZ fgFySLdK6nMiubfJClXBlihoFe5Ml+K8CaZjt0FwganrfXbamLjua4BiaazOYcrurLpXRsqz5ZDs d01FVwbpKJrv7gLcongdJW+vfwQ5sOknAVZFLzf6bxde6ceOiZ0lmTiRnzPcHmxYv+4iGPE1vi3B qLKyE57m43aMyVYvtKFRgKnDVQLUIgGAR2DNCJ9K/GdWeyLaaCJrY/p2/45RpXi2tERKaMm9N/o6 aKe51o9/vmCBOQWyeuEVqjua8iOc5a6eXSNTeuQASolkFOq4a2uNUI7uER8XNClZFbI8whIETWSA aeKQh1yX89lrnLjS2jBKFzFld/bmYOwefDNdgey3Ksh+T6C6VuR2Y8Ltkt9re6SHc16ZtLFS7s9w ESt1X+c+gzgktHtQ4mrz05jzEQ3vRP7NcV+t/Y2Wn66bq0vg9FLpqsmdkje9MkECvDIAnaJ6ZYxw Dqw9oTeed1m2Rffk675M4A5/2R/gHbknp8LuiHqjVL9KXtbmdS9GoNt2iuDYxyZ3BYeVH8DIQNsg fcSU3Vm7wdipXfhmALrGdXRhz7avQmOt700J0sdviltixS1xqo3VPEPBfHGvsE/o4ldY/K/zgqS8 MtJ9ouTyP4e5Fq8Yqk9Nfl3vY7BLuajNPApL2LcnrBKe3pyO7CWqmzIli0fMZyECTELqXT6VXKh6 nX2jzurmDrn/+5AiuPaMeZebq8Bo0I+r1XB+xJhinQjxdXDs8sFnJjJNQpNlyyDPmzp4IuQ4D7tO DN6gxWy/8Zp219IAwDMUtrlbsjX2a4yR/g638cVYQ8ZIqnjSkyKVTPrYqbRXdZQmdRw/ymeMEbE/ LWMYUYrDhZs0Wyvu4sVTgiOLsFpQJHkE/TLGB0PmRdoNxj50vZSkmRtkv1VB9nuZ/Z1+VThukaCe Awr5sjUreRBgulNp5YLcYEi8K0awxXs6AtlRyfnSccM4iXS8TUzqB9dVkzslE8p/ajClTgrmJvS8 xKEiPV10FGOcenePKYix1i5t5/PtDoEcZR2Pu47Vu78sq+Z62fwrxnOMOO9I6p5/o7NrwRAS4Cm7 M1bGBvgGaqhj6+pyuUxG35E94aZgVZvNx9ZqLm6TvTWlo1wZf0nmFLH2Nt61/7uuDR4JUG52K7sm afN87F4Zk725ZnfOOH/bEi0wLpfX9txyWn0GDp14+/zcv6NwHkwZgM8QWDM2p6jwcrk0azeZWCgg 2KKO4on3audRRseEicUMK4V4ZdOMukPValyeOHAT7wqPEkzUexyOjMI00elk6Go3OJaCWWiDoVAl JJKVBKOmd/8c245QB0wZgC/hrJlEXGnvcqw161hr0TYHL+Xx67v3pm72N/6SosUaWHPU+an9b2ow dlg2cRDjXCZLLqUrUOx7KOzIlcs5GhSmunzi49tgvFgs7vWPqR5lzxukF5UQnkgUwGgmS+ydShZg FlTTFqqCKdMRyH6r8l3Zr5SABvZC0AVJzvc2sVfmzrjovLjYhVQU/0ripKnhTr8jJK7XBWuC88qz n+q3AveP8jW0nSKra/HsGz3uc6Zkm9omn+J3P6T7JyhYcJnGhM9XoYU6AYH12VWTOyUTyn9qMKVO CuYm+U7umrZtt5SFNmv3vBEzLloUTQHspgw+fXxjr5lQp0+khZzOHaG4qLGrxVrfZRKPkN42/ub/ VdkOqla4EBBviRF3H9FzdzFld9ZiXhkAqI2uR4ldLcY3W9ItmuvS3Lgk5UM0sb0RnZzsob3PkcGk 9ot2E7Fe0wfn+9r8sKBzJl2Y1Ltk9+9+1jiTsj93Q6MT+iOaou3Hilthu8QVHrlSjivWpZdmkPwq 0ze2oRuwGJuvJXicd6wz5/JyqxZ0biT2X0KAAMVQsSc8HFvQYV/Kp56fQ/b68utecH/Id6kPwze5 pL/BzQj3VA/6+AF/h40sA8Urs+yfdifNkakac+LB2Pw3sm7x06h02G9M2Z211spYa1NR/4+E9ADe YesJY7luKvmvc3ruh6mOUTKRukWOkFLHSeVPsStMM+212BUIUOSWYLt3ADHU/Heu/Q1N/7eEuBiS 3xkUfdB2c2WWk76OwkLu8hd/BHj+sKkrKhE1j8us19Uh78h+A5NwPgvxGsh+q/Jd2e+K35mk5LTK WSL1bmpmkeB3HMtCb95qd3zPJDLBJXuCU9ndplhryWpz4wbbk/mdcDiOANmwiuIB0sF1hdE3/7ve WKZ8MMKaUe0fm1CEx4dZcygG3/4kbDJtzzrRn9zgWqZ8j/WdZx01uVPS1NG01qlcCluePd7SD1N6 5GBuvK4tEIMYv5NzYQJfiuvCPSYK8chcwUaZTNXKtCcWagTKGMl+RZGGpvR0foBMrd7yArvT/27H Et1N9QKi9qok3JS63lRg67fRf5DiNPFx4jLKajcigHVQ4r7ps9OYsjtD9gtwg5NyhIrFMEfxFFlU 345xB/C8CX64xzubNvdd+eDnQmSfffPF0o/LnG7GdX+Hk0XLqrWi992NApEr6OnXrK7zzviudtPo sGQPaGgjz1ByY2Kr7g8LjnO2mLG53DmHv0t4CuaVgbZ8w9v5JGqNXatGq8wiI0NF6kwhyzZ1rMxy VgJyrbBemVMBpihYs0tYxMqXbl8quKOSOVFQTi+eJea8ObhR6dMf123GjL59Y9RaCoJHe60GSUU9 B89JyWNjfS3OL+O1YWwdgB3Thl5MmY/E82AGUs9q42dY6yet3beHbWgsZlmzHL3j2m1NH29L9Joe HL5ci7Nn8SU4nl0VCWLUz0bWytbTywjITbz62744yUjYx0cFLhSmHJzdHatyJ1lq5F0tSaSqySGV 4BfOBdPT1JSRKhlJMDb7s0wr+832/ePJflUHvmjQr8t+3Tg+tSaDDtBFI+KjiZLsxo21Mvxx/Mrr fpWxV0brfoKCOBfFfhD97V2UN5Z3+IOYCm/gr2LWWXq3f41XDV5pM7pa6cZSLlDcq7iLXZbQfSU7 76L+WyvwXiduY9YyOtssqMZWbIp51xkUWuxRI0ra0bzhYOP6YAJ2vVTjJrfssDPxgvwnVbM92zFT 6qSa4nr6+MOgWKGSeOpa5HHUGjNG3+gOEP2MgqLZbd6Rny7VnwTvgUt4Ca9W3HQ4+6btwstuk6xp E92WBwtcfsD9Al03n72WU4eVucKjbpWp7vJKZoy5NC+ziR5qI35evwTGTvB8dsKU3dkLst9lWWJr Zr6aBY+gLRzdjjH+K+eda8lkz1s2JmrvD8/jJiFdFmPDjn3ZJgL+2QHiw5rF+n1oqnQugXQClbCf 1ERl8K81P3dw9gQKqeyBW0IKPoK7od6TzBa1XKVGfpkBrbrNDp/Tcw/y7XeS+CJiV9Dv88h2DDTg nRFMGC5f5Km+/0VKOj1zskNQ+6TANIg7UrkrU5g4qBNZMHsyZ4ZY430wbpbck3dtCT0IatH2jb8e OjrC5hfYCxAkC0MYMhp1HKxIR0gyp0hfhXZnMsbWiYcluAUPugPjE6mHle6uoBjuW7SEU/48AZ4n 5oGRWL0wbps3CgzGhprU6PsTx2vRUqQ6vZvnDl7zg4OrX/NHi1l7wdgc0QyUnycmKM9mPYThqoIX /aDvj2++dcZTMfFh19JYOcJZlO9U/cWugpQjzO0q8cqEx9KOnyS289SyPoJ22M1pl05v9iuJa8/G sT/NUPcQD6f0RIUnHyT2hDVTlV5GMIG5rc/qUfZrEgMVxMZm710Pz/YrOzF/7xXZb/A2GtWYNfrG 4G8tl43lmX4juvfEMotUkspEYZ6D4TdC6qiePESvjeCrtVaMopJFcN2h9YdZxV1HxZmU1bJnnhkT 3qP9Kqy3dz9RPjqV5mKzEDzVPzNR3Fn9OQu35+pW7PKO7DZG8xINYbJcBtnvHV7wyuRr9suxp5vX Xp69JGUmTWpXvF2f+9N/52t2x++c6EBMe/KKdvWHim7o+KdeX25dJ7d9UA8ZGC7Zgu0f1wxKGa5W o7Rs/E7Ts1GCf7cPkYdgu5xkeCj/NB5tP3iYSx6n4KnwI3tJv4XycL3ULATmtX+nCj2Ui7N75HC2 vR3wTu3cNsYPVEl3jrW7G2YUf8xKwfPydJN7dNiZaG3KfMRChJBs3z8YaskvXFG+M5A9m0wQeOfj o/pxoLXpNyLyopY6Lru1IkVB4Ev0OskrVjNmtgSBib04i7C0wmx6/TzVoDtPnEpYjVtxn3raf8eo 98M5Nq8TYcrMk2R8W9wkfkFqSpdDzkntTygwkDUD9WhqyjB/zEd5qu/vhChY80AHE3QGJUdL2TTL Emyzm3kTN/qxFyQwOL3P26XqxSy4m3lvVIwr2OJ6uLgfDU2wxHbt4E89fd5xNhvQXedW+8ptOj7a cxQd9tDXYo/skszverNH3QMZn2ffItLIJ23cd+GE3wqe4Z3B2O1PCm+SeQMDk+gMYnIvsmH6I99N 7vCRA8bZRmHvEhD03XFKxUizIo4QxBT2/X4pM1ckDZ0bpkqc78TBnMco6HuHe9rlhIrRTRRblJCG tHZX48WcnKg3nutoXCNGMtxTMArIfjtiQtnvvROls4R/qY03T3ScV2uZimS/0l5YFm+XSVsz0YH2 Yqjdr29cpKwA1WW2pl+2qVczIRUrlh/65RJz+y7+rL7hcSJBhn6B+4awI/VuulwCKVAxlz23auLN JrH26MFzR/hdiru54jJTB4kPlS92IRebhdUVJu7+OizeXdqSn7Z4S7Rl/h3qeGS8dqTgXO4gk5kF yH7v0HTWv7VOR/TKTDk9Yic84ud/MFjQ6NRqNrtHcEoIlKTqUaVplJJJBjEB90a9jb+11v/Vildu MV6p7J37F6jy2ZWe8vOlqtiLLcuqkb0DF7d7X92X+IN2kBef4aAw15DVrlyL3V1u5UeTT9oE9HB/ zaTdWdMA0zrP75T1CHBMcT+p2g3hi74x3ivu9hqdPHXC1FC6nFiMYrMm2xZSkWZKyrKxW8xhzxp4 ZWxYLBmoSXf5i769KwtXlD7e30mjGD8P0pDNWl3pC9gy7OaOb9lI+89Gj8cS1FvCIu+fTqzVKalu yhTO2eDAyoEhuNIqqZ2A/C2UHDF1kETeNXlmrIcIqfxyuM+e9DKhgPG2i65p8cccJfu/377wKqx2 rr1gJ+usEnFhjKxGVxlydwftW+sONWPV6SOhtJT9uK2gS5jt94vQJjglHxkAACAASURBVFxG7WJj yzxZvalYjjzo4b3xDxKGf/zSLqsA9aSXfp/3I9LhyjJKX5HdV3dy/pOj04irWBZj7b48ghr6MQlD Lip9zmI73FhOXJiEuXbrLC9Tch8Pj1B45Lzbz7d+BvXNKI4oeILqpgxelnJuht6ejdxljpbaFW8v 2VJeoJu//jv14/LGGgzNRZKM5hgjOvuTOb3k8iDeKI/wANZbkMgrRXAVSq7EgFiRITKRPE9FtrZF yGD/Vxsy42fK1m2aZQkfAHHt+3bV0ZIqUunT9N5zeyr7Ycp85avZCzfKLeud0s8hrR+x1KkZzbJR q7m7Jnco8Mp0RLNpPW8ebdCpJ5+c7fds4nTP7H2Icob5jo6zGK+vyXgdMi6lDDKutCxGH3K82wip JnsrbPbUaiBuOSMdjQ4Y96m/Pal4livJi47MqGc6V5IHJwHPJyiaNPn3PiCtFiVZKDKXu8Lt83TS 8zW5LXlhiryM4ZnZ+wW+EPc5976bqpFoe+/1pnbLRrTlcZrscaz1DYFcI6gEQVyO2Cvj0rtTuJfd 2CPl3SbrX87xRXhF8kygGz+Ek928XpIUJU/vhcL3/vQecepHfdrjtXiCbmlMe0eIbJpu/TSj3+4+ wSsDTTnXeaivw0NYfJlCpjwA1rMb1Bxei78bHTfLmirkZq0c9z1yPtufP6b8PNc6/odjQGdOHZwx MBOzjqiDjc2e61PVHqfUXC2lx88kPi6VHM3kByiVKfW6tGPMIA3YcLwwgukjM/bAMwTWTP1mQD1D vis64ViJm20/sxpgCht6f8CqWujDekoFmKRmJTVqyQT+mOjKUmdRjnCVsw6Vd3mxtIexzZVuq24n qLLdBZgKvpwLnrak52d1UKrP9ntXZADFpGeEDP9SG0uOlj3Rsdl6xZB1bdK9BuCeDW2XeNZR/8M+ WZxqHZi9/Dba4q7xsG6t3ZW8dhN5WDGzrY0mkDUm3LWkJmnNssQTvO52zF68XBWJz5lyygIHZy+a SfnkrsIJI4ItzV7Jbp9IeXSNfzc3G/R63ab2Pla353/73doxJi37TaVntt9DmO23iDYi8JYvandO 9Gw59aMV/vwq1Ffh1SWLHTtdNje4l171t/hOjhLUEJw7kvvXiKpKXaBLtuc1nvsn71qQZwz2qhvV cpYGGjQeeSwzlVOyvbwMl0t7/zKD56EGpwp5eN+V387Jn0mfvNUTTjmmqfVsvy1PBwMTPCquxbrl lbmeuzTvqXCY2PXry48G9YQnsTb2rsfnvOZpXxbz1oQoHbYT7/U6RRs7rLE2yGfbyWVi3QxMD7Lf 16CRKkV9c++WwnCYtkt1e8SIiIzU25ZWzGEy0T2E+ptK9HNL+ynJSt4TNiUFDWO8+JifGCPme2DK vMYHGymVg0sOKqVPa8Z6r4PB9o2DMmcuS7rf1TiOeboPjg+eihYFlxBsdJ/Vjaldvd3eFPH1xl9N B5fT/q2pMEQbf1ZLlfvFa47Jn8PSX+Np6FAUHFJd9gvNeFbedeFo1zRouROpbdijzZK9pIlWirT4 Mle5fQlFtuEle5Gm8GQZSabcaLOCX5Poz57CWrtoCt9CZN7DE2UOkk8QVFf+mCXS1MVXzgaXn6+H M1KSW3cuLqcrQPDXWPbrF8n6PyCbqT3vt+mPvo4V8S5Lh0RGMLLf60wo/6kBst8Hs7911sIDqMlK 8u76Fc15kj9C4I1IuUA8ZUDCK1PecJVcZlyS4PrOnig4hXqBDZ6uSmdpUPhHTtGhZ9OkSxVu9x8a Z80EWhkjIk3dTpe30tjXjOz3CuOOWpqYU3ejvXd6YLYGaRPwJudlWXmk0mKTIm4ZyxvKuJCx8z/v 5okNskJ4hOAQG/6sPK+M++BSrD+Fnu0YeISOFi6APrnmomhRjix3LLDreRfxguh36aozI/Iwe5+D 4+eLGrvTL/iVM/c65ZWJvTjT0Kfr4uO4hzCP/S1H5hk0pj/3zCImWII7IPuF54ja/hc7gzsW2MPW W5Qz9pekAkyHJ5Ute2xqyLPAHHzcujr1JEs/TfChE/hhPkUj2a+1VswHmqNNeXrlrr7vwZSV7sUp VdozRah1IeGft3GbfjeR19pIpSuzq8cPDhhv1A74wLUHRXLH98t5/USn8n5htt/IV9dLs/DWbL+7 9WbtYry/fIHHAtnvHdqoWU9UZZ/hpyl1Upfx3vhtGEmRn296ZVLZzx12S12YS01WkjeOxcR71YhM xiujnsVEr+YlXplr0sJMgTOXU37AwrahXOhTHjE8PMtbPsUXfZmjUHpDhRC4N39MDLLfO7QIMLla QyszIdc6tNrcMILaF1y6VeKN+Swpnr2KyE8Q/lvOoQCoxrPTi94LLqDdqkUMFdyN6sCU13w2Pds0 8U+JR7QctDJwm8Ca6aGXSLkg2hYsYwFILntlpB8oz83rTjl4VN8PQHWCR20dsfT7Gaw/J1+016tW JoCfz2XeWYNJmweMezgM+sgd11F3citjA6t5K6Y6A2JUr0yevCPHfbgcUHPkj9DJrX6E/K1xzHTJ /ZL3qmYe2WVs/Yx83njSTvHCbL/l6rCv0Y++L5/GOqvFetLTdf4Gm1LCJmbOffjWB42BZ2DdOdHh 6M/Sg6+6nSWaH1buio8XCyGDvPGRl4L5W59iAtnvEk6JG250t+ZCse/QT7PQTvZrtB+Us2CiTv73 K99m+F1dL7/mqG83jMoSTXOM7PeQ1vIfV63yvOrGrphSJ/UwmivglI+mXJuZO+yzOtICTp0wIysK XUjZiWTUANPhNan1dtaPlnkxfsQld+cg5XlLUrbxMDZ/YMchE8sM0pwJtg5EpZs+ZXf2whR5JjJZ lmVZd01ZxZ+gpNE5ItU1litO5Ccb6P5qPFfWmmV7YMVVX6uAwixxhcQb1Xpzu27Szw90jpBQJYtw BkrC1tH2dXbK/ee/LDMZN5DiBdmvaqw4awbGI2hoblgzKkVtfUoKkzCwnimgeqWpktwmMFZSG/14 U3iEQvnO2fJkNp6t5/L0d4wAbIVOST2OwfbYglmiT8KcX5b1TZq7Pi2MYIJ7qL3H09bMMYsm8q1p YCXP+4TwMOV6CYjP3Iyssx/gKsqLgba9DOeaWdVQ90oGXfOC7BdS9KPvy6fxdhU7flOHvXXVQUlS wac1bXpXwXnSGUvc4CJt/minZqQ9TKbVdviX2niKO1M2dyL7PdzYbLbfw5JUyt6R7Df4QaXCpYly uMfazQgspwYecYwTst9DmmpTMvLezpW/iHiKiPrym6/pR1K/XD/puUe0IQ+37me+TXenTtpzyZfP PCnJ8OHxM9sfdKXUPv61AgzHHFdxF1cL8YczuYeOKyH7Laf1vDKqvLdzOwZKyQSwHyQQo3hBJbHR inE+j5N3g9vTV472E2DndtjaE+NbTyuz20WmdyuHRqCc1loZac3EuxoXBjpHfyI0MUoYC/cCTRnv zBPYcPRWywe5UCVpELqOA3fqbNhaZzME1teare8Rr9B92zFwindGMGHHwB3Wdyzpj/Hftrx5Jkx2 vE942LME701nXhyfeuUq9+hM/yOb/gKhlKRf543CXIXnuZx3ZL9LxCvF6I1+9H35NM9q0C5edSDy TWlDtrSrebNEc+wu3nSuSfRCZtzgVzkp++1Lmnrtd4zsN08/zUJr2e/Ktacqk8s/V8+dj3gHQ/Z7 wITynxpMqZMajzPi2LzPQ997x09yXpN4pYRlyU5dx7Px+Gv6ZYCKCE/tWCD7LYd5ZWAcSuac6K+5 Sjl0gl1vtS3Pnhf9MnTH9vz13U7ALTBlYEwise1v+9lu8+yA5hTpxKnePe9QofsHeJIgrrTJflf5 DBLg0cGUgQG5IbYNUfM+50loEL7h/RLgkJSxghEzB8z22xH96PvyaV6W/ZaJbTWHR+JEQV7t+Pel qTaaYDfYaLPT7Dpdra9TDjc6afOFYt/hzomQ/ebpp1l4R/b7EN5vx9jdjbt97tkPiuz3kAnlPzWY Uic1Aw86PVTlzb3j5aNI9xW7F9K3p/8SwrfwVcDLNnuejFd3ArLfcggwwVdJtVjB9ul+858Fowp+ VkuwcbT5ZiAGUwZG5k7XVDIeCm5DdUJH+FZL5w8nxnc5HZkymxqAWwfNSY2HqoPQsuhlSaUHgHrI cZD7q42xb0mD+eGXg+y3I/rR9+XTdDHb73mSJ1LHQxXmjY5Uou0V66cqMw6rG/uRT6oMIfs9lWWO uj2VfW7Zr4o8UfzL/W3vYIgTst9DJpT/1GBKnRQY49sxqc+XD2x+csLDM+c3wiNQt98hc6/P9uzz eWWm7M46CjABvEBqlYPETz3VROqhIhNOlx54fwCgPcG0v0FU2X3+hjtjEjBlAB5gbxzFUE/PK4NP oC3okMCUPQbua/zB9BFggkOamjJ5YS+yX3iZR569ytMHQyEE78AUPAaq+QLDgey3I/rR9+XTzCb7 fTqvNcFrXdiFIk29nBfZb73sn5X9BnL7fhBmFrLfA6rLf87WY59emSl1UuAof18/lzIr+4XG4JX5 DnnZ7yhaGWS/5VQPMC3LUm7NzFe/8CHC53xbdzfczEMO8CTluqh4rLX7GjtSXxy7BGdpoZVxBgpq GOiBsw1fSUrxn0sX7AaAKpTromIlm3UrMflbNnfNsyU9B37EcprKfjFioAdOCUIv6ndXF65NqIAB oHtmDTBNCbLfjuhH35dPg+z3MHV++uBH6lbdOKI0taHs93N1eyr7R2S/vgMmLsn2oafQErLfQ16Q /+Rrtk/PzZQ6KXCk/CZXRlWrAsKinADwDKfk+cbZN1vfJGNL1onemts3yH7LaT1F3kcsRPguhZEq AOiNxMgl9L/988IUeaZX1wsAAHwQ33pZjO+AecuOwZNbzgsLF2DHwFfgUQd4g8wvrzAw4EJOcbCp GevAgZZnHBdkvx3Rj74vn2Y+2a/zKwd/8cabJzpMgOz3ZmLq9nL278h+xcS+Np7qdx+BrRWj6fhs fx6TmK4a2HdpKv8Zd16ZKXVScAgOXoDpidX51prlp/1Vppdp6Zup0f5M2Z019cosvxWDP2EkAgDA qGxzKIRumIZGwHT2RkXekf1mXf3cPQAAeJU4UrM6Y3gT75IXZL8AAACjwEjs/mkdYDqkZXl6ox99 Xz7NfLLfZ/MiTa2Xl7qtl/0jsl//RKG632zuGGsW9/fyUkzIfgt4R/4TV27nRsyUOik4BNkvwNwE v/Hf1139+1PMvOKY+UmPn2bK7uyFwdjlxjvAu0z3eweAIzznzN4xLca6v0YFIbBVzGsLF0ircN04 pakIAAAD8Oub6IOGpKlXJrVwwXI0ERAAAEBF9jnyFs8f+94LNq/25bwQYFJdL/X8MdbajGbKUens p+hH35dPg+z3ZmKkqZfzUrf1sn9S9ps4UTBr3vq/EAI3KZ0sDrLfAzqa7bfGXMApP5BJ3OBM2Qh+ AQBMhiL7Nbva161pkpnzd91ew75B9lvOzPPKHL6fxXodAACYFbWZDzban3EiJ8QL18oO01diOoOj Hi+YMqpJiCUBAABViW2D3IQLbp/mlTGMMOqJF9ZgMunI6INer0y4St3F+lAAABDC7FIj0Fr2K62Z QHI7X/TuLP3o+/JpkP3eTIw09XJe6rZedmS/IW5Ak/waf66HUxwj+z1iztl+pd8lJYtJBblSjhws LQCAySjyuawBpkXIan6dS92yVepzpuzO3pH9Vq3HjxihAADQAqeTcSObhAW0LnDwWtnAGPPKvDJt eNxasj5ye5CMr3zlK1/5Ot9Xa8XsMtvOinaMtRcKGXyNqVXaV3nB0WSLIz6HB5GUh5NSp8sUw87o kQMAgFLsPqCJAFNvtPbKZEzCB63F2AIdwhq9WcLy7CUpL9ypePu1LZW4c6JTeQ8TP1K36sb8K1o9 qNt69NMs5BMUVqO6cYy6ddGlNWeDMor+K7G/owb2XV6Y7ddk5969WZ78bUt5bmRevDIAAKATWF2b jqbKbL94ZYp5QfabWoPpEeOxxEBZzxXczgtBLgAAmBzRMVmzxEtno/ntgZkXLgAAALiFfA2OwzfY MX3wUVPGOWaCjW+VBwAABmBVzEjdDHTACwsXZIRgLY0JdeGCd+lH35dPg+z3ZmKkqZfzUrf1siP7 PUy9e2hExsXY9e/RogVnRvZ7QGv5T4kst0Om1EkBAEARCTtGLjP5eLAJ2W85rQNMKcfMfDULAACT EPdQvzlm2hcFFCZcuAAAAKAiS5PZfqGYj8p+AQAArrAsxphYHCNtGhZmasy0azCNSD/6vnwaZL83 EyNNvZyXuq2XHdlvtDebeVky++/bMdJUQvZ7yITynxpMqZMCAIAUUunrbXUfa/pdFqOe/gGm7M4I MAEAAJQhZ8wzYpkkokuvQoAJAADgPM5Do67Gc290E8bQKTBlAAAATiI1KBX0KIuxTChcDqZMR/Sj 78unQfZ7MzHS1Mt5qdt62ZH9nsr5k/1q/pjVoXLZrbLPHbwdHNnvIRPKf2owpU4KAABWCnt8VQhc KRjEbL/ldCT7XY3H+aoYAAA6J+559BFMal5f5ysWnKQ7a0RHpgwAAED/+C6c0F65GWCCC3RkyuCP AQCA/lFdOGYbtYQR0x5kvx3Rj74vnwbZ783ESFMv56Vu62VH9ns9e+V585D9HjKh/KcGU+qkAAAg RblWxmhemZtaGWb7PUVHXhlr7UfsRwAAGIJznVJkIlyeKI8o1Sk60soAAAB0Qt5zoZo46zDc32fE vw3BlAEAADhHYOhYN6ed/Y3ENsbcGZK9GBuPjYIUHQWYoB99Xz4Nst+biZGmXs5L3dbLjuz3Tvaf ZRPpf2/YMfqJ8tuR/b5Pz1PkTamTAgCAPIfi30qmArLfUxBgAgAAuIizCpzRY+0TE8xMZ21UBVMG AADAmJyY1yNpZmzmzANxJYs1c4LqpsxHAnUAADA6d1Zi2jNcdca4CWmuZf8yyH47oh99Xz4Nst+b iZGmXs5L3dbLjuz3ZvZlMWZZnhx9vR0f2e8hE8p/ajClTgoAAPJc8Mq4wdi/DWXGjeKMQfZbDFoZ AACAG2R8gcVOGpmy3vClWcGUAQAAuIE0O6y9ufoSXABTBgAA4EnUAFP5CG2LX+Yk1WW/9iS1y9Mz /ej78mmQ/d5MjDT1cl7qtl52ZL8qGXtCyR5fmjBcrMmJghdjg7/DcnbVwL5LdfnP2XrsU440pU4K AAAeY+3s3DR5bvO2EtPZefMq9TlTdmfVA0wlVebMnfnqFwAAPoTqiGKV7Mq8r5XBjgEAgOHxxb/7 5kuLGLAy9ineNGUwYgAAYCrcRDRrWGnddnlqGSjjndl+ncJ3WRbsGEc/+r58GmS/NxMjTb2cl7qt lx3Z72PZrZV2jNkkvccHNIv7KzlRVw3su7wg/xnRGTOlTgoAAB5ATglspcw3N6ApgNl+79A0wDSi EQMAAJDD2S7Blvgz1KGRKSN9XNgxAAAwFdKacaOy1w9ldky4cAGcoYUpgzMGAAAmJ/C+2BPLF2C7 3KTFbL/y8yG1y9Mz/ej78mmQ/d5MjDT1cl7qtl52ZL9Xsgd/PtcNlGWR4Spkv4cw228RU+qkAADg SdLz4x2C7PcOXcz2CwAAMDaJ93Zno8RqmHVLMyNmYt6ZVwYAAGAeVs2vM0GwRdry/sIFAAAAAxOP xD7M4a+YLXchAb4AXpmO6Effl0+D7PdmYqSpl/NSt/WyI/u9nj22XQLjJsLN/+v+dX+/7AXl7KqB fZcJ5T81mFInBQAAD7OZDuVq33ViYG0fst9SCDABAAA8xGYlLKtrRtgozmSRHzJHgHIwZQAAANpx oIbJxK0gQYsp8j4SqwMAAPjhli9YwS6pSVPZL2ZNnn70ffk0yH5vJkaaejkvdVsvO7LfJ7PHuyr8 RrpqYN+l0Wy/61nk57GYUicFAAC1sKGe125rTpbkrtfhTNmdvbAydt5InK+KAQDgc6xmTLDGpCaU +Vk8MiX94ElaLFzwEQcXAAB8FrWjW0MR+9fUuOtUfiijhVfGOVrGDTABAABkSM6TJ22UtCUjEmDT nIbZfjuiH31fPg2y35uJkaZezkvd1suO7LdK9mDa38Ms2jTByH4PeUf+E1du566aKXVSAABQj90s sUIKE/ldPK1M/Y5myu7sBa9MufEOAAAwJGqnJg2aOP10FkYzWs/260wWaRWuG6c0FQEA4IvkZTHC 0NnTBdYPHWIxrafIWz8EJkugCwYAAJiBoFNbXS+yBwzslXVvkAaOeCHApLpe8MeYnvR9+TTIfm8m Rpp6OS91Wy87st+Hs1u7LL+IkvDALOuu3VK50Rp31cC+S9OYTn4wds9DtQl+AQDACQJ7xal63XY1 nFRfMTNld8bK2AAAAE+QMURWw0X+qyZwH6azNqrygimjmoQfcYIBAMC0BAOqz/ZrmC9XaaqVScl7 U3JgAACAkYiXUop1vqh6n6a17FdaM45g12fpR9+XT4Ps92ZipKmX81K39bIj+30su7NmpCzGmTWJ +WbWKUlOnairBvZdmO23iCl1UgAA8AzPWgw1u5spu7N3ZL/z1SMAAHyXoFOTlk0wjilOEGeHkzCC CQAA4DmCodduo0k7bwJ5DZyElbEBAAAeIhiPHSy6pGp+3RbsmKtgynREP/q+fBpkvzcTI029nJe6 rZcd2e8D2dV5ZeI1saUKWB4L2e9VJpT/1GBKnRQAANQiNV1eMKyp+YR4U3ZneGUAAACaEAhoVlIj tKEYTBkAAICnUT0fwewycaQJLsEIJgAAgMocjl1awaa5RFOvjNVoWYDO6Uffl0+D7PdmYqSpl/NS t/WyI/utl92u3pfsOgbWJO0YZL+HNJL/HNZm5yqkKXVSAABQnWBmPDnlTLD8ZKPiTNidtQgwSTsm tSb2+u989QsAAJ8mXi47WHKyuTUzH+0CTMuyqJZKajsAAMAM5G0XRjDdpropU+huWRN8JKoHAADf Ihq1ZI1vzcANGIzdEf3o+/JpkP3eTIw09XJe6rZedmS/z2e31vsLtssPDZvcKaku/ykXwfQsl5lS JwUAAO2QMab0bMD1SzFhd4ZXBgAAoDJyNrxveEpagikDAABQE3S+lcGUAQAAqIYaSZouxPMumDId 0Y++L58G2e/NxEhTL+elbutlR/ZbK/uyWGt/2l+zSBFwIAtOHQ/Z7yGNZL/l9ClHmlInBQAATREe GmS/D4JXBgAAoALxm/x0NkQnVF+4YD7rDwAAAPoBrwwAAMBDpAUvbcvxLTBlOqIffV8+DbLfm4mR pl7OS93Wy47s95ns6kDrAl0Ms/3eoZ38J57MV1Zx53GoKXVSAABQBWv3ZSMTdgyy3wdp5JUpMcM/ YjwCAMDkRItHqkngKarLfk12caVlH5aGHQMAAMNSqJLBhKlAdVMmEyuNjZspHV8AADA/QeflLx4J VWkUYDo0ULBgTE/6vnwaZL83EyNNvZyXuq2XHdnvk9mtt3hkV03ulDSa7Tc4S/nGTsBdBAAARTg7 Jv7QAVN2ZwzGBgAAeAjVamEp7Mq8YMr07H0BAAC4Tqpro8urCV4ZAAAAGJjqpszqfXHKo7x86eOu mn70ffk0yH5vJkaaejkvdVsvO7Lf57OfmW0E2e8dWsh/4qpUBb/x9n6YUicFAABfY8rurMUUecuy pNYoqLd2QcmRB1o5AQAAAFRamDLmyFB43IyI3ZXqdHzxVwwaAACAsXhZ9rssSyU7ZhGYtOEi08Ar fCSU+wrUbT2o23pQt3AWRjB1RD/6vnyaQTVoH5SmNoO6rUc/zUIz2W8z+qnbfJpBm9yWtJP/NBOm xKGiYEsqlpSJMU2pk+oE6rYe1G09qNt6ULdVmbJ6W3hlrLVxfOcjpuIpeEWoCp6DelC39einWcAr czn7N5vcljSS/Zr0wKUaJ4pNpfmMUAAAADANvDJq1EaV4gIAAACc5Z2VsTPba5zxEa3M4+UEAABo z3xhinYBpmeJbQvp6YmdQGvI6fL9m+/GAwAAzAGDsQEAAGBgRvXK4CYBAAAA802vTH7+33fKBAAA AJeYzZTBTAEAAPgUjUYwlXO/PKkzBkdOCYcBAABgIGbzyhhtiUp1wUh1qhsAAAAYiwnXYgAAAIDv MOoIpq5otlLml5lyCbR3YXGPetAmVAJhQG0GfXQxZe4SdLH0uDVgtuVK8KzWgDahHlRsVcZ9dCfU yjRmlDsNAK9AEwFQG0wZ6J2B3gwGglqFoeEBBgkBpmdwERB+XTAKgwbFR4E2AYZjXa9Qfn2xMKfA lHkGuez2QLe/f6jPegwaFB8CWZ/U7eNQpZVAKwMAIzFKCzUoVC9AS/DK7OTXNxjU7dYJ1+p23e72 DvSK0BKe23pQt/W4XLe0AyV87dHFK1NEvKiT7F/fKNE8ZOp2EZhZfnIt4bmtR6Zu4SbUbVWmrF68 Mj8y9zI2bwOTdj4L91ku1y0cwnNbD+q2HrQJVfngo4sp88DvZKD73ZgH2yAqOYDnth7UbT2o26p8 tnq/HmA6HDCpRhzXr7wr5KFu60Hd1oO6rQd1W5UvVy9emVGN0CGgbutB3daDuq0HdVuVz1bv170y n73xDaBu60Hd1oO6rQd1W5UvV+/XTRkAAAAYGkwZAAAAGBhMGQAAABgYTBkAAAAYGEwZAAAAGBhM mQPUMff55S2gEOq2HtRtPajbelC3VZm4ejFlAAAAYGCYIu+YdVmKwJId3YbtBOq2HtRtPajbelC3 VZm1evHKFKHO9AyPQN3Wg7qtB3VbD+q2KlNWr53jMgAAAOCb4JUBAACAgcGUAQAAgIHBlAEAAICB wZQBAACAgcGUAQAAgIHBlAEAAICBwZQBAACAgcGUAQAAgIHBlAEAAICBwZQBAACAgWE5SYCBkcvC sQhJCrWW1o2pSsvvLTwFALQBrwzAqATL2wIAfBO8MgBjgw+gkKoVtR4c4xLgFfDKAAAAwMDglQEY D/n2L1Ud7rNLIF0RJXqOII168Di9ulE9UVzCVGHOClzOqltO8dylXgAAAXFJREFUkXG34BUDeB1M GYDZiPvd1JaUoZPacvnUGVtn/XpYEiwGAEiBKQMwHhk3iUyQ2ZgyU0rSFBav8ERrgthYUROs7pw4 cVWXjHpkZDEA/YBWBmA2Srr5QKaaSVNOyYniIx+Wtqo/xiY4zNWgbABQCF4ZgE/QzItQ40SBZaM6 ZpqBHQPQG5gyADA2d6JLJfJndTt2DEA/YMoAfIJmXW+DE73lmMGOAegTtDIAMDDtA2fYMQC9gSkD 8AnUEc417IAaJ4qPEKiJa5sX2DEAPYMpAzA5wahm+dntUscZqfZHfJBTJyosbeYs7cGOAegctDIA 8+Nm1y0fZnztIOUnOiQzfjs4VzPU02HfALwOXhmATxBP91Ky5fAgF05UUtRTM9xgTAB8HKYDB4Ak tWfRvUN53KfZVfRcXQATg1cGAAYGuwEA0MoAwEhc1se8tXQ2ANQGrwwAjAouGQAwaGUAAABgaPDK AAAAwMBgygAAAMDA/AcXF2OqKanQHAAAAABJRU5ErkJggg== "
     height="450"
     width="750" />
  <g
     style="fill:#0000ff;fill-opacity:1"
     transform="matrix(2,0,0,2,633.45431,-408.24656)"
     id="g3081">
    <path
       inkscape:connector-curvature="0"
       d="m -257.24868,230.0306 0.032,0 0.016,0 0.032,0 0.032,0 0.032,0 0.032,0 0.016,0 0.032,0 0.016,0 0.032,-0.016 0.016,0 0.016,0 0.016,-0.016 0.032,0 0.016,-0.016 0.016,0 0.016,-0.016 0,-0.016 0.016,-0.016 0.016,0 0.016,-0.032 0,-0.016 0.016,0 0,-0.016 0,-0.016 0,0 0.016,-0.016 0,-0.016 0,-0.016 0,0 0.016,-0.016 0,-0.016 0,-0.016 0,-0.016 0,-0.016 0,-0.016 0,-0.016 0,-0.016 0,-0.016 0,-0.016 0,-0.032 0,-0.016 c 0,-0.496 -0.096,-1.648 -0.88,-2.448 -0.592,-0.576 -1.44,-0.864 -2.544,-0.864 -2.544,0 -3.936,1.648 -3.936,3.632 0,2.144 1.6,3.68 4.16,3.68 2.528,0 3.2,-1.68 3.2,-1.952 0,-0.288 -0.304,-0.288 -0.368,-0.288 -0.272,0 -0.304,0.08 -0.4,0.336 -0.336,0.752 -1.248,1.264 -2.288,1.264 -2.24,0 -2.256,-2.112 -2.256,-2.928 v -0.528 c 0.032,-0.624 0.048,-1.28 0.384,-1.808 0.4,-0.64 1.04,-0.832 1.504,-0.832 1.872,0 1.904,2.08 1.92,2.64 h -3.808 v 0.528 z"
       style="font-style:normal;font-variant:normal;font-weight:normal;font-stretch:normal;letter-spacing:normal;word-spacing:normal;text-anchor:start;fill:#0000ff;fill-opacity:1;stroke:#000000;stroke-width:0;stroke-linecap:butt;stroke-linejoin:miter;stroke-miterlimit:10.43299961;stroke-opacity:1;stroke-dasharray:none;stroke-dashoffset:0"
       id="path3020" />
    <path
       inkscape:connector-curvature="0"
       d="m -248.16068,227.5186 0.016,-0.048 0.032,-0.032 0,-0.016 0.016,-0.016 0.016,-0.016 0,-0.016 0.016,-0.016 0.016,-0.016 0.016,-0.016 0.016,-0.016 0.032,-0.016 0.016,-0.016 0.032,0 0.032,-0.016 0.016,-0.016 0.048,0 0.032,-0.016 0.032,0 0.048,-0.016 0.016,0 0.032,0 0.016,0 0.032,-0.016 0.032,0 0.016,0 0.032,0 0.032,0 0.032,0 0.032,-0.016 0.032,0 0.032,0 0.048,0 0.032,0 0.032,0 0.048,0 0.032,0 0.048,0 0.048,0 0.032,0 0.048,0 0.048,0 v -0.752 c -0.4,0.032 -0.864,0.048 -1.264,0.048 -0.384,0 -1.104,-0.032 -1.44,-0.048 v 0.752 c 0.304,0 0.752,0.048 0.752,0.176 0,0.016 0,0.048 -0.064,0.192 l -1.856,3.984 -2.032,-4.352 h 0.864 v -0.752 c -0.528,0.032 -1.952,0.048 -1.968,0.048 -0.448,0 -1.168,-0.032 -1.824,-0.048 v 0.752 h 1.024 l 2.784,5.984 c 0.192,0.4 0.4,0.4 0.608,0.4 0.272,0 0.432,-0.048 0.592,-0.384 z"
       style="font-style:normal;font-variant:normal;font-weight:normal;font-stretch:normal;letter-spacing:normal;word-spacing:normal;text-anchor:start;fill:#0000ff;fill-opacity:1;stroke:#000000;stroke-width:0;stroke-linecap:butt;stroke-linejoin:miter;stroke-miterlimit:10.43299961;stroke-opacity:1;stroke-dasharray:none;stroke-dashoffset:0"
       id="path3022" />
    <path
       inkscape:connector-curvature="0"
       d="m -239.69668,230.0306 0.048,0 0.016,0 0.032,0 0.032,0 0.032,0 0.032,0 0.016,0 0.032,0 0.016,0 0.032,-0.016 0.016,0 0.016,0 0.016,-0.016 0.032,0 0.016,-0.016 0.016,0 0.016,-0.016 0,-0.016 0.016,-0.016 0.016,0 0.016,-0.032 0,-0.016 0.016,0 0,-0.016 0,-0.016 0,0 0.016,-0.016 0,-0.016 0,-0.016 0,0 0.016,-0.016 0,-0.016 0,-0.016 0,-0.016 0,-0.016 0,-0.016 0,-0.016 0,-0.016 0,-0.016 0,-0.016 0,-0.032 0,-0.016 c 0,-0.496 -0.096,-1.648 -0.88,-2.448 -0.592,-0.576 -1.44,-0.864 -2.544,-0.864 -2.544,0 -3.936,1.648 -3.936,3.632 0,2.144 1.6,3.68 4.16,3.68 2.528,0 3.2,-1.68 3.2,-1.952 0,-0.288 -0.288,-0.288 -0.368,-0.288 -0.272,0 -0.304,0.08 -0.4,0.336 -0.336,0.752 -1.248,1.264 -2.288,1.264 -2.24,0 -2.256,-2.112 -2.256,-2.928 v -0.528 c 0.032,-0.624 0.048,-1.28 0.384,-1.808 0.416,-0.64 1.04,-0.832 1.504,-0.832 1.872,0 1.904,2.08 1.92,2.64 h -3.808 v 0.528 z"
       style="font-style:normal;font-variant:normal;font-weight:normal;font-stretch:normal;letter-spacing:normal;word-spacing:normal;text-anchor:start;fill:#0000ff;fill-opacity:1;stroke:#000000;stroke-width:0;stroke-linecap:butt;stroke-linejoin:miter;stroke-miterlimit:10.43299961;stroke-opacity:1;stroke-dasharray:none;stroke-dashoffset:0"
       id="path3024" />
    <path
       inkscape:connector-curvature="0"
       d="m -236.83268,227.8386 v 4.912 h -1.104 v 0.752 c 0.448,-0.016 1.408,-0.048 2.016,-0.048 0.624,0 1.552,0.032 2,0.048 v -0.752 h -1.104 v -3.328 c 0,-1.728 1.376,-2.512 2.384,-2.512 0.544,0 0.88,0.336 0.88,1.536 v 4.304 h -1.104 v 0.752 c 0.448,-0.016 1.408,-0.048 2,-0.048 0.624,0 1.568,0.032 2.016,0.048 v -0.752 h -1.104 v -4.128 c 0,-1.664 -0.864,-2.288 -2.448,-2.288 -1.536,0 -2.384,0.912 -2.8,1.712 v -1.712 l -2.736,0.128 v 0.752 c 0.992,0 1.104,0 1.104,0.624 z"
       style="font-style:normal;font-variant:normal;font-weight:normal;font-stretch:normal;letter-spacing:normal;word-spacing:normal;text-anchor:start;fill:#0000ff;fill-opacity:1;stroke:#000000;stroke-width:0;stroke-linecap:butt;stroke-linejoin:miter;stroke-miterlimit:10.43299961;stroke-opacity:1;stroke-dasharray:none;stroke-dashoffset:0"
       id="path3026" />
  </g>
  <g
     style="fill:#ff0000;fill-opacity:1"
     transform="matrix(2,0,0,2,633.45431,-408.24656)"
     id="g3087">
    <path
       inkscape:connector-curvature="0"
       d="m -255.98468,249.1666 0,-0.208 -0.016,-0.192 -0.016,-0.192 -0.032,-0.192 -0.032,-0.176 -0.048,-0.192 -0.064,-0.176 -0.064,-0.16 -0.064,-0.176 -0.08,-0.16 -0.08,-0.16 -0.096,-0.144 -0.112,-0.144 -0.112,-0.144 -0.112,-0.144 -0.128,-0.128 -0.128,-0.112 -0.144,-0.112 -0.144,-0.112 -0.16,-0.112 -0.16,-0.096 -0.176,-0.08 -0.176,-0.08 -0.192,-0.08 -0.192,-0.064 -0.192,-0.048 -0.208,-0.048 -0.208,-0.048 -0.224,-0.032 -0.224,-0.016 -0.24,-0.016 -0.24,-0.016 v 0.576 c 0.672,0 1.344,0.256 1.696,0.816 0.336,0.544 0.336,1.424 0.336,2.192 0,1.376 0,3.104 -2.032,3.104 h 0 c -2.016,0 -2.016,-1.728 -2.016,-3.104 0,-0.72 0,-1.536 0.272,-2.08 0.288,-0.592 0.96,-0.928 1.744,-0.928 v -0.576 c -2.608,0 -4.064,1.632 -4.064,3.76 0,1.968 1.408,3.568 4.064,3.568 2.672,0 4.064,-1.616 4.064,-3.568 z"
       style="font-style:normal;font-variant:normal;font-weight:normal;font-stretch:normal;letter-spacing:normal;word-spacing:normal;text-anchor:start;fill:#ff0000;fill-opacity:1;stroke:#000000;stroke-width:0;stroke-linecap:butt;stroke-linejoin:miter;stroke-miterlimit:10.43299961;stroke-opacity:1;stroke-dasharray:none;stroke-dashoffset:0"
       id="path3028" />
    <path
       inkscape:connector-curvature="0"
       d="m -248.28868,251.9506 v 0.784 l 2.912,-0.096 v -0.752 c -0.976,0 -1.088,0 -1.088,-0.624 v -9.696 l -2.832,0.128 v 0.752 c 0.992,0 1.104,0 1.104,0.624 v 3.104 c -0.8,-0.624 -1.632,-0.72 -2.144,-0.72 -2.336,0 -4,1.408 -4,3.664 0,2.096 1.456,3.616 3.824,3.616 l 0.16,-0.576 c -1.952,0 -1.952,-1.936 -1.952,-3.04 0,-0.768 0,-1.632 0.416,-2.256 0.464,-0.672 1.216,-0.832 1.712,-0.832 0.896,0 1.536,0.512 1.888,0.976 h 0 v 3.984 c -0.208,0.288 -0.864,1.168 -2.064,1.168 l -0.16,0.576 c 0.96,0 1.728,-0.384 2.224,-0.784 z"
       style="font-style:normal;font-variant:normal;font-weight:normal;font-stretch:normal;letter-spacing:normal;word-spacing:normal;text-anchor:start;fill:#ff0000;fill-opacity:1;stroke:#000000;stroke-width:0;stroke-linecap:butt;stroke-linejoin:miter;stroke-miterlimit:10.43299961;stroke-opacity:1;stroke-dasharray:none;stroke-dashoffset:0"
       id="path3030" />
    <path
       inkscape:connector-curvature="0"
       d="m -238.09668,251.9506 v 0.784 l 2.912,-0.096 v -0.752 c -0.992,0 -1.088,0 -1.088,-0.624 v -9.696 l -2.832,0.128 v 0.752 c 0.992,0 1.104,0 1.104,0.624 v 3.104 c -0.8,-0.624 -1.632,-0.72 -2.16,-0.72 -2.32,0 -4,1.408 -4,3.664 0,2.096 1.472,3.616 3.84,3.616 l 0.144,-0.576 c -1.936,0 -1.936,-1.936 -1.936,-3.04 0,-0.768 0,-1.632 0.416,-2.256 0.464,-0.672 1.2,-0.832 1.696,-0.832 0.912,0 1.552,0.512 1.904,0.976 h 0 v 3.984 c -0.208,0.288 -0.864,1.168 -2.08,1.168 l -0.144,0.576 c 0.96,0 1.728,-0.384 2.224,-0.784 z"
       style="font-style:normal;font-variant:normal;font-weight:normal;font-stretch:normal;letter-spacing:normal;word-spacing:normal;text-anchor:start;fill:#ff0000;fill-opacity:1;stroke:#000000;stroke-width:0;stroke-linecap:butt;stroke-linejoin:miter;stroke-miterlimit:10.43299961;stroke-opacity:1;stroke-dasharray:none;stroke-dashoffset:0"
       id="path3032" />
  </g>
  <path
     inkscape:connector-curvature="0"
     id="path3860"
     d="m 618.52918,37.509808 -0.3735,348.449272"
     style="fill:none;stroke:#000000;stroke-width:4;stroke-linecap:butt;stroke-linejoin:miter;stroke-miterlimit:4;stroke-opacity:1;stroke-dasharray:none" />
  <path
     inkscape:connector-curvature="0"
     id="path3860-1"
     d="M 446.633,35.519788 446.25953,383.96906"
     style="fill:none;stroke:#000000;stroke-width:4;stroke-linecap:butt;stroke-linejoin:miter;stroke-miterlimit:4;stroke-opacity:1;stroke-dasharray:none" />
  <g
     transform="translate(44.688472,-85.633898)"
     id="g4354">
    <rect
       style="fill:#ffffff;fill-opacity:1;fill-rule:nonzero;stroke:none"
       id="rect3584"
       width="221.46883"
       height="37.347191"
       x="373.84537"
       y="320.7142" />
    <g
       id="g3070"
       transform="matrix(2.8,0,0,2.8,1114.8281,-245.49468)">
      <path
         id="path3002"
         style="font-style:normal;font-variant:normal;font-weight:normal;font-stretch:normal;letter-spacing:normal;word-spacing:normal;text-anchor:start;fill:#000000;stroke:#000000;stroke-width:0;stroke-linecap:butt;stroke-linejoin:miter;stroke-miterlimit:10.43299961;stroke-opacity:1;stroke-dasharray:none;stroke-dashoffset:0"
         d="m -262.27268,204.1906 v 9.44 h -1.728 v 0.752 h 6.88 c 3.136,0 5.52,-1.968 5.52,-5.376 0,-3.504 -2.384,-5.568 -5.552,-5.568 l -0.624,0.752 c 1.04,0 2.368,0.304 3.152,1.424 0.56,0.816 0.688,1.888 0.688,3.376 0,1.744 -0.192,2.576 -0.704,3.296 -0.768,1.088 -2.176,1.344 -3.136,1.344 h -2.336 v -9.44 h 2.336 l 0.624,-0.752 h -6.848 v 0.752 z"
         inkscape:connector-curvature="0" />
      <path
         id="path3004"
         style="font-style:normal;font-variant:normal;font-weight:normal;font-stretch:normal;letter-spacing:normal;word-spacing:normal;text-anchor:start;fill:#000000;stroke:#000000;stroke-width:0;stroke-linecap:butt;stroke-linejoin:miter;stroke-miterlimit:10.43299961;stroke-opacity:1;stroke-dasharray:none;stroke-dashoffset:0"
         d="m -241.92068,210.9106 -0.016,-0.208 -0.016,-0.192 -0.016,-0.192 -0.032,-0.192 -0.032,-0.176 -0.048,-0.192 -0.048,-0.176 -0.064,-0.16 -0.08,-0.176 -0.08,-0.16 -0.08,-0.16 -0.096,-0.144 -0.096,-0.144 -0.112,-0.144 -0.128,-0.144 -0.128,-0.128 -0.128,-0.112 -0.144,-0.112 -0.144,-0.112 -0.16,-0.112 -0.16,-0.096 -0.176,-0.08 -0.176,-0.08 -0.176,-0.08 -0.192,-0.064 -0.208,-0.048 -0.208,-0.048 -0.208,-0.048 -0.224,-0.032 -0.224,-0.016 -0.24,-0.016 -0.24,-0.016 v 0.576 c 0.672,0 1.344,0.256 1.696,0.816 0.336,0.544 0.336,1.424 0.336,2.192 0,1.376 0,3.104 -2.032,3.104 h 0 c -2.016,0 -2.016,-1.728 -2.016,-3.104 0,-0.72 0,-1.536 0.272,-2.08 0.304,-0.592 0.976,-0.928 1.744,-0.928 v -0.576 c -2.608,0 -4.064,1.632 -4.064,3.76 0,1.968 1.408,3.568 4.064,3.568 2.688,0 4.08,-1.616 4.08,-3.568 z"
         inkscape:connector-curvature="0" />
      <path
         id="path3006"
         style="font-style:normal;font-variant:normal;font-weight:normal;font-stretch:normal;letter-spacing:normal;word-spacing:normal;text-anchor:start;fill:#000000;stroke:#000000;stroke-width:0;stroke-linecap:butt;stroke-linejoin:miter;stroke-miterlimit:10.43299961;stroke-opacity:1;stroke-dasharray:none;stroke-dashoffset:0"
         d="m -239.58468,208.7026 v 4.928 h -1.104 v 0.752 c 0.448,-0.016 1.408,-0.048 2.016,-0.048 0.624,0 1.568,0.032 2,0.048 v -0.752 h -1.088 v -3.328 c 0,-1.744 1.376,-2.528 2.368,-2.528 0.544,0 0.896,0.32 0.896,1.552 v 4.304 h -1.104 v 0.752 c 0.448,-0.016 1.408,-0.048 2.016,-0.048 0.608,0 1.552,0.032 2,0.048 v -0.752 h -1.088 v -3.328 c 0,-1.744 1.376,-2.528 2.368,-2.528 0.544,0 0.896,0.32 0.896,1.552 v 4.304 h -1.104 v 0.752 c 0.448,-0.016 1.408,-0.048 2.016,-0.048 0.608,0 1.552,0.032 2,0.048 v -0.752 h -1.104 v -4.128 c 0,-1.648 -0.8,-2.304 -2.448,-2.304 -1.456,0 -2.288,0.8 -2.704,1.536 -0.32,-1.488 -1.776,-1.536 -2.384,-1.536 -1.392,0 -2.288,0.72 -2.8,1.728 v -1.728 l -2.752,0.128 v 0.752 c 0.992,0 1.104,0 1.104,0.624 z"
         inkscape:connector-curvature="0" />
      <path
         id="path3008"
         style="font-style:normal;font-variant:normal;font-weight:normal;font-stretch:normal;letter-spacing:normal;word-spacing:normal;text-anchor:start;fill:#000000;stroke:#000000;stroke-width:0;stroke-linecap:butt;stroke-linejoin:miter;stroke-miterlimit:10.43299961;stroke-opacity:1;stroke-dasharray:none;stroke-dashoffset:0"
         d="m -222.56068,207.1986 -2.768,0.128 v 0.752 c 0.944,0 1.056,0 1.056,0.624 v 4.928 h -1.104 v 0.752 c 0.496,-0.016 1.28,-0.048 1.952,-0.048 0.48,0 1.28,0.032 1.856,0.048 v -0.752 h -0.992 z"
         inkscape:connector-curvature="0" />
      <path
         id="path3010"
         style="font-style:normal;font-variant:normal;font-weight:normal;font-stretch:normal;letter-spacing:normal;word-spacing:normal;text-anchor:start;fill:#000000;stroke:#000000;stroke-width:0;stroke-linecap:butt;stroke-linejoin:miter;stroke-miterlimit:10.43299961;stroke-opacity:1;stroke-dasharray:none;stroke-dashoffset:0"
         d="m -222.40068,204.5426 0,-0.064 0,-0.064 -0.016,-0.064 0,-0.064 -0.016,-0.064 -0.016,-0.048 -0.016,-0.064 -0.032,-0.064 -0.016,-0.048 -0.032,-0.048 -0.032,-0.064 -0.032,-0.048 -0.032,-0.048 -0.048,-0.048 -0.032,-0.048 -0.048,-0.032 -0.032,-0.048 -0.048,-0.032 -0.048,-0.048 -0.048,-0.032 -0.064,-0.032 -0.048,-0.016 -0.048,-0.032 -0.064,-0.032 -0.048,-0.016 -0.064,-0.016 -0.048,-0.016 -0.064,-0.016 -0.064,-0.016 -0.064,0 -0.048,-0.016 -0.064,0 c -0.688,0 -1.248,0.56 -1.248,1.248 0,0.688 0.56,1.248 1.248,1.248 0.656,0 1.232,-0.544 1.232,-1.248 z"
         inkscape:connector-curvature="0" />
      <path
         id="path3012"
         style="font-style:normal;font-variant:normal;font-weight:normal;font-stretch:normal;letter-spacing:normal;word-spacing:normal;text-anchor:start;fill:#000000;stroke:#000000;stroke-width:0;stroke-linecap:butt;stroke-linejoin:miter;stroke-miterlimit:10.43299961;stroke-opacity:1;stroke-dasharray:none;stroke-dashoffset:0"
         d="m -219.21668,208.7026 v 4.928 h -1.104 v 0.752 c 0.448,-0.016 1.408,-0.048 2.016,-0.048 0.608,0 1.552,0.032 2,0.048 v -0.752 h -1.104 v -3.328 c 0,-1.744 1.376,-2.528 2.384,-2.528 0.544,0 0.88,0.336 0.88,1.552 v 4.304 h -1.104 v 0.752 c 0.448,-0.016 1.408,-0.048 2,-0.048 0.624,0 1.568,0.032 2.016,0.048 v -0.752 h -1.104 v -4.128 c 0,-1.68 -0.864,-2.304 -2.448,-2.304 -1.536,0 -2.384,0.912 -2.8,1.728 v -1.728 l -2.736,0.128 v 0.752 c 0.992,0 1.104,0 1.104,0.624 z"
         inkscape:connector-curvature="0" />
      <path
         id="path3014"
         style="font-style:normal;font-variant:normal;font-weight:normal;font-stretch:normal;letter-spacing:normal;word-spacing:normal;text-anchor:start;fill:#000000;stroke:#000000;stroke-width:0;stroke-linecap:butt;stroke-linejoin:miter;stroke-miterlimit:10.43299961;stroke-opacity:1;stroke-dasharray:none;stroke-dashoffset:0"
         d="m -204.88068,213.1506 0,0.096 0,0.096 0,0.048 0,0.064 0.016,0.048 0,0.048 0.016,0.048 0.016,0.064 0.016,0.048 0.016,0.048 0.032,0.048 0.016,0.048 0.032,0.048 0.048,0.048 0.032,0.048 0.048,0.048 0.048,0.032 0.032,0.016 0.032,0.032 0.032,0.016 0.032,0.016 0.032,0.016 0.032,0.016 0.048,0.016 0.032,0.016 0.048,0.016 0.032,0.016 0.048,0.016 0.048,0.016 0.048,0.016 0.048,0 0.048,0.016 0.064,0.016 0.048,0 0.064,0.016 0.064,0 0.064,0.016 0.064,0 0.064,0 0.064,0.016 0.08,0 0.064,0 0.08,0 h 0.768 c 0.32,0 0.512,0 0.512,-0.384 0,-0.368 -0.208,-0.368 -0.416,-0.368 -0.976,-0.016 -0.976,-0.224 -0.976,-0.592 v -3.424 c 0,-1.424 -1.136,-2.464 -3.504,-2.464 -0.912,0 -2.848,0.064 -2.848,1.472 0,0.704 0.56,1.008 0.992,1.008 0.48,0 0.992,-0.336 0.992,-1.008 0,-0.48 -0.304,-0.752 -0.352,-0.784 0.448,-0.096 0.96,-0.112 1.152,-0.112 1.2,0 1.76,0.672 1.76,1.888 v 0.544 0.496 1.504 c 0,1.536 -1.472,1.744 -1.872,1.744 -0.816,0 -1.456,-0.56 -1.456,-1.264 0,-1.712 2.528,-1.936 3.328,-1.984 h 0 v -0.496 c -1.136,0.048 -5.184,0.192 -5.184,2.496 0,1.536 1.968,1.824 3.072,1.824 1.28,0 2.032,-0.656 2.384,-1.328 z"
         inkscape:connector-curvature="0" />
      <path
         id="path3016"
         style="font-style:normal;font-variant:normal;font-weight:normal;font-stretch:normal;letter-spacing:normal;word-spacing:normal;text-anchor:start;fill:#000000;stroke:#000000;stroke-width:0;stroke-linecap:butt;stroke-linejoin:miter;stroke-miterlimit:10.43299961;stroke-opacity:1;stroke-dasharray:none;stroke-dashoffset:0"
         d="m -200.11268,208.7026 v 4.928 h -1.104 v 0.752 c 0.448,-0.016 1.408,-0.048 2.016,-0.048 0.608,0 1.552,0.032 2,0.048 v -0.752 h -1.104 v -3.328 c 0,-1.744 1.376,-2.528 2.384,-2.528 0.544,0 0.88,0.336 0.88,1.552 v 4.304 h -1.104 v 0.752 c 0.448,-0.016 1.408,-0.048 2,-0.048 0.624,0 1.568,0.032 2.016,0.048 v -0.752 h -1.104 v -4.128 c 0,-1.68 -0.864,-2.304 -2.448,-2.304 -1.536,0 -2.384,0.912 -2.8,1.728 v -1.728 l -2.736,0.128 v 0.752 c 0.992,0 1.104,0 1.104,0.624 z"
         inkscape:connector-curvature="0" />
      <path
         id="path3018"
         style="font-style:normal;font-variant:normal;font-weight:normal;font-stretch:normal;letter-spacing:normal;word-spacing:normal;text-anchor:start;fill:#000000;stroke:#000000;stroke-width:0;stroke-linecap:butt;stroke-linejoin:miter;stroke-miterlimit:10.43299961;stroke-opacity:1;stroke-dasharray:none;stroke-dashoffset:0"
         d="m -190.62468,208.0466 v 4.368 c 0,1.712 1.392,2.064 2.528,2.064 1.216,0 1.92,-0.912 1.92,-2.08 v -0.848 h -0.752 v 0.816 c 0,1.088 -0.496,1.472 -0.944,1.472 -0.928,0 -0.928,-1.024 -0.928,-1.392 v -4.4 h 2.32 v -0.752 h -2.32 v -3.04 h -0.752 c -0.016,1.6 -0.8,3.168 -2.368,3.216 v 0.576 z"
         inkscape:connector-curvature="0" />
    </g>
  </g>
  <g
     id="g5342"
     ns0:preamble=""
     ns0:text="\\{\n"
     style="font-style:normal;font-variant:normal;font-weight:normal;font-stretch:normal;letter-spacing:normal;word-spacing:normal;text-anchor:start;fill:none;stroke:#000000;stroke-linecap:butt;stroke-linejoin:miter;stroke-miterlimit:10.43299961;stroke-opacity:1;stroke-dasharray:none;stroke-dashoffset:0"
     xml:space="preserve"
     transform="matrix(0,-6.5428417,-17.272819,0,12790.45,1673.3301)">
<path
   id="path5344"
   style="fill:#000000;stroke-width:0"
   d="m 226.25,713.27 0,0.04 0.01,0.04 0,0.04 0.01,0.04 0,0.04 0.01,0.04 0.02,0.05 0.01,0.04 0.02,0.04 0.02,0.05 0.02,0.04 0.02,0.05 0.03,0.04 0.03,0.04 0.03,0.04 0.04,0.05 0.04,0.04 0.04,0.04 0.04,0.03 0.05,0.04 0.06,0.03 0.05,0.04 0.06,0.03 0.07,0.03 0.07,0.03 0.07,0.02 0.08,0.02 0.08,0.02 0.04,0.01 0.04,0.01 0.05,0.01 0.04,0.01 0.05,0 0.05,0.01 0.05,0 0.05,0.01 c 0.05,0.01 0.09,0.04 0.09,0.1 0,0.11 -0.08,0.11 -0.19,0.11 -1,0 -1.91,-0.5 -1.92,-1.24 v -2.27 c 0,-0.39 0,-0.71 -0.39,-1.04 -0.35,-0.29 -0.73,-0.31 -0.95,-0.32 -0.05,-0.01 -0.09,-0.05 -0.09,-0.11 0,-0.1 0.06,-0.1 0.16,-0.11 0.66,-0.04 1.14,-0.4 1.24,-0.88 0.03,-0.11 0.03,-0.13 0.03,-0.49 v -1.97 c 0,-0.42 0,-0.74 0.48,-1.12 0.39,-0.3 1.05,-0.41 1.44,-0.41 0.11,0 0.19,0 0.19,0.11 0,0.1 -0.06,0.1 -0.16,0.11 -0.63,0.04 -1.12,0.36 -1.25,0.87 -0.03,0.09 -0.03,0.11 -0.03,0.47 v 2.09 c 0,0.46 -0.08,0.63 -0.4,0.94 -0.21,0.21 -0.5,0.31 -0.77,0.39 0.81,0.23 1.17,0.69 1.17,1.27 z"
   inkscape:connector-curvature="0" />
</g></svg>
