<?xml version="1.0" encoding="UTF-8" standalone="no"?>
<!-- Created with Inkscape (http://www.inkscape.org/) -->

<svg
   xmlns:ns0="http://www.iki.fi/pav/software/textext/"
   xmlns:dc="http://purl.org/dc/elements/1.1/"
   xmlns:cc="http://creativecommons.org/ns#"
   xmlns:rdf="http://www.w3.org/1999/02/22-rdf-syntax-ns#"
   xmlns:svg="http://www.w3.org/2000/svg"
   xmlns="http://www.w3.org/2000/svg"
   xmlns:xlink="http://www.w3.org/1999/xlink"
   xmlns:sodipodi="http://sodipodi.sourceforge.net/DTD/sodipodi-0.dtd"
   xmlns:inkscape="http://www.inkscape.org/namespaces/inkscape"
   id="svg2985"
   version="1.1"
   inkscape:version="0.48.2 r9819"
   width="750"
   height="450"
   sodipodi:docname="stage1mod.svg">
  <sodipodi:namedview
     pagecolor="#ffffff"
     bordercolor="#666666"
     borderopacity="1"
     objecttolerance="10"
     gridtolerance="10"
     guidetolerance="10"
     inkscape:pageopacity="0"
     inkscape:pageshadow="2"
     inkscape:window-width="1680"
     inkscape:window-height="988"
     id="namedview2987"
     showgrid="false"
     inkscape:zoom="0.66939442"
     inkscape:cx="441.55767"
     inkscape:cy="437.59311"
     inkscape:window-x="-8"
     inkscape:window-y="-8"
     inkscape:window-maximized="1"
     inkscape:current-layer="svg2985" />
  <metadata
     id="metadata2991">
    <rdf:RDF>
      <cc:Work
         rdf:about="">
        <dc:format>image/svg+xml</dc:format>
        <dc:type
           rdf:resource="http://purl.org/dc/dcmitype/StillImage" />
        <dc:title />
      </cc:Work>
    </rdf:RDF>
  </metadata>
  <defs
     id="defs2989" />
  <image
     width="750"
     height="450"
     xlink:href="data:image/png;base64,iVBORw0KGgoAAAANSUhEUgAAAu4AAAHCCAIAAAA/+dtNAAAAA3NCSVQICAjb4U/gAAAgAElEQVR4 nO2d7ZKjIBBFYWve/5XZH0ZsPgUVBDynpnYzCookIzfdF9TGGAUAAAAwJ//ebgAAAADAdZAyAAAA MDFIGQAAAJgYpAwAAABMDFIGAAAAJgYpAwAAABODlAEAAICJQcoAAADAxCBlAAAAYGKQMgAAADAx SBkAAACYGKQMAAAATAxSBgAAACYGKQMAAAATg5QBAACAiUHKAAAAwMQgZQAAAGBikDIAAAAwMUgZ AAAAmBikDAAAAEwMUgYAAAAmBikDAAAAE4OUAQAAgIlBygAAAMDEIGUAAABgYv7ebkBztNZKKWNM atdGtAAAAAAMzuJRGSlW8ru01pnCAAAAMCYrR2VOdYyMxKBjAAAAZmTxqAwAAACsjW7tEbkT7bjT Nht3SQVgwoNnXDUAAAAwJkRlAAAAYGI6eWVqQx03nSvEVwAAAD7CglEZDLwAAADfoXlU5lpo5H5A 5dmQDPIIAADWYL2UxWqTsdulljq891rfcmGXVy8pmSmT2hVuv7alEXdOVFX3tPAjfRvd6G2hb0t2 Ldy3VdXv9G1qL31bXrLnLbekzXPxspRptN5u+FbhngEAAFiSfuLXvrZnDAXH/cbk9eZ2/AuTsbt9 S/gg9G076Nt20LftoG+bsmT39ojKhI8IsK8zsuYaJQJlW2wmDGlGqwMAAMDINJ/BZDWK2bG7wtdL 5vDKeWQK+lMlyx9fldlesqUbd05dVfe08CN9G934VvfSt+0Y57aQL1DYjdGN9G2+zKS33J50Wu03 ajsq2dioASr2Btc62gAAAOZiyeFswXVlCvHey/XeWgAAgC+w2mTskIxGQb4AAADMznejMgAAALAA SJmB+KYHrZsr7YPWVPq2ZNfCfVtVfRzb7wf7Nl8G2+8p69t+H2FJnxQAAHyNJYezTl6ZcsEOAAAA UA4JJgAAAJiYQZ+MDQAAAFACUZmB+KYHbQqLH9bUPPRtO8a5LWD7vVx9qFvukixo/2nBkj4pAAD4 GksOZ80TTLWScL0uBgAAgHaQYAIAAICJ6W37zT/ckZAMAAAAVNE1KpPRK9vGjxiUUnzTgzaFxQ9r ah76th3j3Baw/V6uPtQtd0m62n/yoZeRAzNL+qQAAOBrLDmc4ZUBAACAiUHKAAAAwMR0lTIZQ8zI 2SUAAAAYlneiMjrglWaMxjc9aFNY/LCm5qFv2zHObQHb7+XqQ91yl+Qd+0+0c0cOySzpkwIAgK+x 5HDWfF2ZKOv1IwAAALwCtl8AAACYmOZS5poVBgMNAAAAlEBUZiC+6UGbwuKHNTUPfduOcW4L2H4v Vx/qlrskze0/d/pxHEvNkj4pAAD4GksOZ0RlAAAAYGJ6PxkbAAAA4EGIygAAAMDEIGUG4psetCks flhT89C37RjntoDt93L1oW65S7Kg/acFS/qkAADgayw5nBGVAQAAgIlBygAAAMDEIGUAAABgYpAy A/FND9oUFj+sqXno23aMc1vA9nu5+lC33CV5x/5jO3c7+/gupPFbCAAAcMqSw1nzJfI88upyvf4F AACApryTYPIkCwoGAAAArtFVymRCLzbT1LM9AAAAMDvYfgfimx60KSx+WFPz0LftGOe2gO33cvWh brlL0tX+I6MyYYRmZLvMkj4pAAD4GksOZ6NEZT6iHAEAAOBZukqZlCHGm5sNAAAAUEjvqIynZrTW 6BgAAAC4zAsJpswMpo/zTQ/aFBY/rKl56Nt2jHNbwPZ7ufpQt9wlWdD+04IlfVIAAPA1lhzORrH9 AgAAAFyg64MLCiNd6wlGAAAAaMSIURnpBQYAAADI8MJk7O2Fh9zes0lD8U0P2hQWP6ypeejbdoxz W8D2e7n6ULfcJXlttd/83tFW/l3SJwUAAF9jyeFsxAQTAAAAQCFIGQAAAJgYpAwAAABMzDvPYEpZ k9ZL4FXxTQ/aFBY/rKl56Nt2jHNbwPZ7ufpQt9wl6W3/yXfrmJ5ftahPCgAAvsaSw1nXJfJU+uHY 6/UsAAAAdKC3lNnICxdkDQAAABSC7RcAAAAmZiwp8xGDUopvetCmsPhhTc1D37ZjnNsCtt/L1Ye6 5S7JC/afEufvaCzpkwIAgK+x5HDWOyozo44BAACAYelq+808ZekjQTAAAAB4llG8MqlJ2gAAAAAZ XpMyaJeQb3rQprD4YU3NQ9+2Y5zbArbfy9WHuuUuSVf7TzSplPp1KJb0SQE8i9ZqhL+SQZoBMCZL DmejJJgAYGqufff7xjdGAGjL+4+T1Ds9WwIAa1N7R+EOBDAvvaMyMq5ljPHCXOtFvQCG5fLgPeao P2arbrLkRQE8zgsJJk/BGEH/xgzFNz1oU1j8sKbmGbZv5W8f7Nuq6th+21Uf6pa7JAvaf1qwpE8K Ps52i7vwuba+WmmwvXa0By26Xqvkvy1aUlj+5gViYYbHWXI4e22JvNq9AJDilQFv0y7eV77wG2Cq YXfaHEoo77VsW5XGiraqhd569rAAH6erlAGANSgMWntDdVT3lKuf/CkyUZnwvC9qiJKztwsmASxJ cynz2dQdwMJcSzDJvV4CKDUkFw780ReZ2Ez0JhRKq3KV0EJSDKXAAEamue23KmH08ezSNz1oI1j8 TpswrO03GO2S9kmt/Z/89nxF78Wd97Cgu5zC3nlPT73dVLzVxY05fpTSoozdGIaUKtpZSChWZMdG NxZ8Vr1fsf0m+eYtd0neXO13Ipb0SXVglu+R8zoYdKW51aurYjmg8vRHbVQmPEgmKiNzQ144J7ql ipQhJnVp0fIqCPOc1vWKXbuQkn4DSLHkcNbVK7Ne98F9uPN2I5NVqa0e5nTsr93ezfBcGa+Mt6vq LCrdS+Hlh9sLTxfqwo2MovrG922Ac16w/UpJKGNfCB1oyjKaKTp8hqNaeLHRgbB8dEwZbDNHyx82 zKSUVy9RGOG/8teoHTgsmSe8/DDukmpe9HXPj+gyfxEAvaVMPh2ImoFZeHEYyJhnxyEVMrF7U7Wi v0ZzNN4L71ynAZhUrczBowIllX7aPDe1gZOUaMu8zp9CXshoHxKAp+i62m/0UdjRLd/k5tUP6EG7 VkYULi/7ZN3Y0Z5s9na0RKAidO0lG9DfPpmWIPrCDGrPdZs/rw7cymGTtOuZzV+9sP0mjxmqlvJA jqeBMteY33uKtDDfsRBh+21XHdtva960/eZ/HYo+EaP1vjaVXFE+rXC5Q8K6Mi1SQv7U0SRL6tTR XYVXFyZxTinstPJbnNfm1LV7uZXQueKdvfa62uFFcfIhnxlJGagXu+FACUsmQFgiDx4jEWbwt7z+ R1T4zTXMLLSgajg5nXdTRUZh5A/4+juoEsmgjVBRnarYTHBlIlIiUhJ9fys+RcgfGJLXpMxHol6f IjXQelvyboDUoRoRta9+/F5dn5h4sseiNpeURTd8UdiS1ECeOssUpNJbtXUVfwUwGy9HZdYLc0Ge ErlzgehBhtJMp5f54OBRfqhMsZvZPRWIjEdkwWnqJyVx8hrlwRa+y9Yt+QuRF1ukYFIfBfQODENX 2+8mXHS4RunYRplZqPGg3TpaN9vvTUI7pLel/OOmH13x9sHVfrcXIqRUbZ+8/IZ4I2JJdib0pYb9 llcenXNA092QTvvNw3tH4te7y0bn4xToGGy/N0ti+73DC/afcOKSGt6I1KJ5hR+wFr3S7dtUyYlO fQweqe+Hl+sqt52FnVPb7GfJt7bq/fWu/U57bPWoPSX0Dqt0cAX6kHrjvPfoV8jbrcR2mIfBR9tr vJBginbiej17SqNUy7yUd0h0e9S+Kl89MmQW2hEuiDPvoqQUaP2pKG9n2MjoEU5zOrXBlTuKxyit jIlWR0il3tBYMXO8r1++T8GQMIMJ4MocolBqZOIQSnynDQnH9QvtuYNstmykNxEmKlBSB4z2RvQb f8kB7wgOrYzKTlz6OGEn+G+01kq571NW8jzdQIBzunplYA3KB4DXbmuZW+0ZrdvseXfsFrnr8QDS aclomMSTL1VJq/utgkHQyth/f8iP769QsVmMTwA0ACmzDs/auy4c7aoH7UqzdcKE+/tRiVH3qk6p 7Q2dsAnLXd4Wb5fyVUXSPllyrnzzC3tFxldslf1FZMVe77x3EkzQky2K5b3FTmgrFmPUdpfcmP7c ZrZg+y3che3XsqD9pwVTr/ZbbkcoP+C7ruFwe3yLShgVn2hJPsGU8v3IXd4Wb5dKeGjKW5tqRjle gsnzgcpDtXZAb+dvdXQoxn4QYvvc3GT4Wc+/hl5g+4Up+a6/uKVRsVEHPtXSlKqo0hxe7CQTSmkk YqyCQccMQvhGHMrGC7tJNeNpYVkG4AmQMgPB37VHZtxNjp37jm0ATFa43df5dIn8dpoinDmSUgwl R7uAF3SxG73Thbtax2AsKJgx2d4XPzaTicp4exU6Bh4GKQOjUxJVOm6SqR3tozIlN+dUzig1uyeK V/3yoJAw5cRfp8pveKmxKE/ZmS/w4qmXQeb4rIhxtGaoeb3PdHQ7wBM8b/uNLuab2Q6Wbh60qqPp 9EK3wcYrHrSGnwo3vj2mlzCc5ywVg074dsMOj5aMvk3y1OFMFG9qVSHR44dl3oIbz30qImTux/L4 L5TJ++cG22++DLbfUx6Lyrz1WVyJm1asZ51c9mjl4YdwW9ikki3PEMS346ukNaD2imQYpiQqEz1R mK6K7pJkojLRrgoTTL8Gp9egK2f7om8zF6SW5qXUFyz3uJ+e6F9QiyBOt1tuSclMmdSuN2+wg0GC CVbA/2uN3vaKY9rRUTmTVSmhMPf0CGE+pVxnRA2a3kG8F5k16MqR2iWlY5A4g+C9C4emDQ00Trm0 k+ZCG0hPgeAxKWOlHw+GHJ8n35zUHeXdO03q1GVNemzO11m1qDElfHF66gczO9FUl21GJiqzbQql RsqncsG/go4ZFvvW5KY4HZvcj1fob7ukdRA3X+b5qAwi5ltEbzqr3FRaX8fv4Frr/e8mlWDKtySq vU73ZnJSUQqiMvG8QIbjYkWWyklEkHhaAkfQyClwSQN/fPMqtxZ4mCar/XoOX73T4lwrMYsHzSc9 zbKRK63uXpZuzLMcusT3jUW8t86W2PAs5wR5VbzDpk7RDtu2O4OK9808s0Bz5hs/jEmYgXJ375/R /dbxK7B/GvwPcLA9avO60s5JbrnYfk9pMoMp9etH+vQys3jQoqWPocnxog7kSut0ouA0xiijtNmf r/SbHCS3ZJ0m5a3O2HvzQscOKyZ4OJT892itO5L81rlX2r6w/3qtCl87qshtmV14zTt++YXDi2hl QkHjbdTavXW4tbTevhicneiGdp/llovt95RWtt+t++zH0BiDjlkGG36I7w4dFuNxOUxdVNFLusXq uFbZ7Y/lKO5VCo+nVHB4rbUudQLF3zonnBb/17ZWHOu4ImPUcVGBQSI8m/Kv2j27u85vJiTDrWUW tg+yk2yyERf3EyPffV8SPRSSgZXoMYNpWFUo1dWwjRyXVJKbnlTJMJXcf+zVv/82s8jl/gu9NVE3 QrKua6+xR0i5ofb/PMfNobDMT7E5ZUJLkLfdO/sFLleE1pSnCGt9Ud47fufvCGakoZQZfCpTNBE2 bGtHJz/uzU/RBV0IUzkG1/pOS3W1pzDcgo6+cY8QRoa8f2VLzR6IiUZfotEUeZCc2tjiS9tfZP2i NeiYBbjmiwo/YMvdiiBOE9uvyjpmRsAKF8vbLVJqXg+aN6CK4XkoV9rpiaKekrzLxGG3k/yG4GD7 78c7rnv6zYmSb8lRXPnj9q/m2Sf62OuqBOuGCb0yXkepzdbg2pa9dIBnssljLy2Sl9I6Y5SJtrBk F7yI9cQ45pjbtu785zbSjElvuentn7X9NpmMLS0y3q7HT7cSU3rQooGBPTYzlCvt9ETRMTuVRjs5 USZMtVkCvCCJe/qwoYmwypaVEceOXkYV+5mOw2h9dN6+V8eWk7Fldt+MHxzy/D2eirJnDkNAOrsM X+ZN+cZtHH6Uhv12przlZrdj+32SwXszmkvaFJjWeqimTkCqu77cjUJ3/EZ1V804KuHMVRMScZlU HiG8y+tj1tFPM8jITVxF2Gt07brCxWxUcC4vh+VtP74ESRuo1iqYDvM6LHIzLOjXD8KDC2B9ore2 cGPSdlJVMRum8g8UJuYK1YzScXnhNy6uzA/1swuRWFpnP1XY2k1bFH3rPRp2nGi/0khUZtd+Sktx U/CNdleFSjl5Ck9wPKg/0DGzUPxXBRODlIHnGPWGUZI5Kqx7XrEwTBWN05SrmVTey4s15o+gReQj eWS7zY0eBQmvo2qYYLKyKYj9eFfgyA6jpOKxKscRQKE0ca/oZK02WB0Z7Rv1/gQP0Mr2Cxf4pgdt HNvvU3W3wlkDR1KvVDVRi/u0VoenWJ+5hvVu1z0aaa2Sod1AxxzK0e3yUF7huuvaDy9aqKPpqsBx fOFNfuBhmDAD4af1m7fcJUHKlKJd7EavzJ1fZTLgwqG8J3rePJG3yGHJiTyiJwrrZk707K8XTmSp qntcdaKfwxUjrzVyi1E4+4xR2ltZ+JiOlPlWanWDqx6UMbGa23HzB5UhnN1HvE1Eyk9H2k/9O6x4 vJPO/HoHQjXL4/0tbHzklqsSg9difNHlGrX9Zrar4CMCsxMPi6SDJTVFnJLl5auRQfM9p2NzMd5Z tZsPspkgtQ/kNpsTbX3h3c8KCzl9K1ZOTNcPpjgNe6e1ySwMv1PDjXzJ4YyoDEzCsEOcIMzpeBuj CZmLZG5Gp/cp24i8s2dXFr9QijleqP2brnOAX7Qm5nqW59JJKXC5c7wnQNmNKhu5iT80inzTouQD kzA12H7h26TCJoXhFLeYG75uHJVRgU1Y69PJPj+tYKMfWp8slXCEVw71I4VacHDHvOKcNZW8E0GO 2oBHOGXpPkmZ9dxKbvAK8gOIplmM5lEZXUnr9qiylOQr3Lz88uolJTNlUrvC7de2yH1127O4bhXx Kjom+wkam8+uO1FtgfK+VXtaKRNi2f6kZHBo3+48pljrrNpwdE91silbKGiw0DQlbphw0VjnOQmx hxGGpzstBgsQDSV+85a7JM1zZrX92EdMhMIlL2WWTC7OgVUV4YvHz1IYSIkZT0oH+Ecank7QpE4n O08F68rEbUP5JogJ2dK0Y107tpHyXOrnU77SC/LtuVAdwPLxe/mSw1nzBJMMgYzTfXZtX2/jW+2B JGEOpVxn1J6lsHpM7qSctk0STCY4065IHFXhNll5VbLGXL9CGPjRsTK+azio+7sPVITVvPSTt9Em mOQLb1f0UKlTVIGuAhiETl6ZAR8L4E2IHadh4FOlM8opzF5Fz1grsNpgs17ur5ErkyGZ43f7Mm8Y KgtZaWufPV7v2/dXSkgnLzLkNzhQCWHmKPoiWjd1lvz2U0oqIncAOvBp2y/yZVyqdEZ+JE5xGnjI 00hg1XCEgrzJ2LXNyWiU0I6znUqkk6pOZVWOFh7hk/LbmYOZ3kpe6R6aqjXnyuBNTxMxADxIv8nY UbMtSL7pQYsfzRjnJ7+90robbfphC0wZbNVundWx1W/FT9xfXNaSwI2erlLwLp60d1sTz85p8k4Z XoAVSkLZHG+CWPvOiLXI5LJ4cnG83+xuEzf2hgrA+pTDXN7v7TPGnk6+yOOpH5THF4j+UVw6zpS3 3CUZKOMzMkOlxj5HWYKjtFiqYvTFacWNWOFHgjWlBymLyvjtLYnEeKmpWA//Xu7bpXNFeVOQpE24 OPPipbh+Jw2jMsZoXR1ZaRGJgSn47B19yeGMJfJgbLzhNmMZvZbxiRYuMaaeBXLGIRlnSfWSVCph PCeI01jXyxbpUbFQx+/HPVg0KhM2yh5THk0FOibMMZVQWN5vJMvozc/Yf7VQx6e9MjA6GZ3hG1mD il6VFJnhvLxhsTjQY1970srs2JP5kqV13JKSF3yhPot2uwzeaL1pGr23xkZfbGEZ7pFtkBvzA4yc AS7zeNZx3IiMBxnm5ZHQKYwAUgYG5lRn3LTuXuNUYD175BsHU0opuwheuN3LRuVFhI14qYJA1G7A CTYaR1qJQNqmaH4ZIuO02VlR5lBJx+o1niPYOafypdIjMC9pDdAxy0CCaSCw/VYTzX3krbsZcqEN 3/CRqV602m++D1O9dN5X2pV5+/OSPB9uzFEd25S8gOPFVsVrnjGbdcc/eOo44tcwD+UkmPQuY4x4 x8Pjx65COo7Pr7G4CsmmefnmLXdJFrT/tGBJn9QKyJTHNevuUw24XNH1z5ZgT1h4cmvL9S0m+Trh tiDmcX6YKvvtnoFKNyFX94jQuGkva4iOWpn3yeXxpOVRxQ3DeL5mz+BMwGZSPnKPX3I4I8EEsxEO 4Ef+4cS/8jxVxz/LTMl1YiJjc+21HGPyEaYySvtqJBosyVuRMng6a59SpPaHUEpxcPweaqQt9uK8 tdFyu27wdnqROZHVknEcreOy4xAue8WMV0YanJUiSDMZy43pHwUpA7NRrlpGu0tF2xnqMCdT5m4p wDHD2o3BwnHJ43ntydtMXOHl/ftLOv00gd88u/3wxWitlDlEl5daEv/G5YLVK17+6/DVeP3jVg3a ZszRbHlGK5qcFz/5k8tDEa0ZEJkUhXlZMNDUgiUjcnMTDp9y+1vtKS8ZbXlY1vW0lhw+HmSR6Zvy vFTYGOPe+72ETTS1t/96EpWRJ93L2+yPtdGU9IBS4jLdxtiu8C7RKah9maJqhMizkiVMbKGH2vGR e/ySw9k7tl+9Y399pRmj8QUPWmSAvHbV0mp65ve8daL6uieFZcvVbmQ9O74WrlxjDhuv8Vc/dufv RL9y5gMtslikHdqeKX6i8uNHS4qDHydxT2ov3+xr0vx+FX0S/WxoT0x51+U1I1xTWBWtIBxKDdvI fMWSo6FjGhH7UJ8zxS33I8Nrb3UWfRi13TisVFxSxr7DnahJ+QDZh1Q0KJpFKkccJ+mV2TM459cq Fnq5Er4SLdfyDzQ81NkBbTDmSBJFozipxjshm+MXL61zIY6lXFdObRXbyLAlpcdKnYIYTC8+dXdf cjh7xysTPpX6I8rxo6TGqlpZk9IHb/1ZRsfv6EWdtjzMOmk5KO9jdvRC891oEuGAtHr4/f8bRE1s p5IJouihUn/QjmtHeJHjLUo13u4NX1u7sFRL2SbZXRGpJHwzMk+XOIRzAVK02XdUHa0710/omD4s N6x/ka5SZtMrUT24qZkl1SJUDPnlhKP+K4RWj9OWpFRL7JhGOE/jx3/82m0exzpL7KlSURm3Yuy3 Xw273cqCuqbJKIVb12mO17d7ywuDHLke/R3wsP78JNMuO6LH93b5wiXQQEqon9Qx4UFevH/AU7BE HnTB++75iI5JHbwz9uzlOsarG43iRK8o3H4nrFVexcvxeIfq1vmF7Y9Ga/bXxpqNhEqTG42KWZek chFdYlxlZaLPAN932ROVXxQ6pg/69lOy4V2QMgOxuO03MeRXX3XV2J9tXs05tfe783O63e41jjks bHncqOttl+mQbDv3OOjZ5e2ti/weKqeC86YO67TE2CjFSV2vRyN9HCotr83baexeJ5MkIk/mcFBr 8dxKJSIrep8uXvFp8j4hwd5IBCsd44EWHBKz5i4x+i23+NQL0DWhIxNMXrJpcOcvma+LFP4VXe7b QULDCf1xUiWag4kewWZJRN4hwr2uCHM0ere1bmd2PMjKFRDpFJvdUJuISzYyNpv6FGP9ucKYc1xH KnO3L5F8AcfgrJTsT5uqq2i/SJtdaw/kifvrV2TJ4ayrVyZliBlcx8B1wuEhun1qtNQYBbNyMqSq /I4Z2GCvy4GzivmWpK6x3TCQOLKVNVaUiAHfnUzkiZI9nrMf6MTzdKxw4+3Xh175FQi/FotFArX1 1hSImHAqFjqmHT+R/PtlxTvV0vSewWTVzParN4+pc2OgK9Eh/yavf2a8Cym/tLMy0aHul9qw49nT yiGaE7M2D+Vd7tnw/yTRjs2f0XHz/FTgEZIJw1sZHSNiK9kWHkrlJuHJykUMkZvL+N3++u0Finlh MnZ06jU6ZnEuD/kj413C9mvoJrl0pfHsk/zqXxX+yaSuxPbqIMtvWZfqa7zyzht/9lA49EgXS/gm KCdAYowd9cMPp60VaALPb6OCr/HHMbznd4q3zL6JKc0Rbi9fLAcdc43jwxT96Mx+s1qdd2y/JuCV ZozGsrbf6Di3D/ndXGnPr/brXZS9IrdmeO3X+zbMzLrKKWr7lW07WpVo2zn6kuU5d7wqw4tSSqz2 eyxzfOy3/8q9v3/dZYKV8YVn9CK0cBzLssdxvCZt8RkZ5lGhv7tOc3g2ZHiceN9mdcy4t9zKUy/A gvafFizpk3qHBYIxUbwwybN5NHEGLa24lw9R/N399CRaZm2KfawVbffkg58WOrYrlej4cDVeT8Ck WyMHMj+ZtrtEndDLsdtx8DgfD3EV3ovHlQrr01TRyFA/GksOZzwZG+AJZGTgTszDJZ4lOfwr/snz h5IxCDnS23E3TDAVtG8PemwniObFalJhPp5tRcaZnNNkj+B5YjLBqnQT/T1hJjGR+XLfrzIF6Uqu iKE4teiw1x4mdd9kuSF/VV6QMvl413pqERyWfH9TH+mIgaKO0IpTLQiONsRyTPLQtWg3RFLWuFsC T3RBtMtlGiiuAoWFef9dqZQ8Sp3gZ9g5Nhulf9rDPY7MLB2Ome20+yVEZye5np7U9bgibw/qMG37 MpGY3+0/YehDbynzkbwdfItUNGOEG9+RFIkFJC63MFpXHDOqmkKRUZdpEqW9LJtnafBa56tApxPc vFS+TTffaBm00crEEkzOv7/W2qa66a79UPoIjMXau5dE2ZzykQTTknS1/cr1Y1L0bM9oLGv7rdzS iOdtv/misQTE6dEyfRvL3Zx0ZmSR4tRoHyOaLfr9KKOtGXZ/bbcr4bq1r+0BjWvILerbQyG5OujC x8leeJAK1Ptivjpm+/U2+p0ZI2qgcQrkZ3iL8/361jYviOUcrfUe+cirbZwAACAASURBVISIuU/9 H/KFkth+7/Daar9zsaRPCp7HDlfhi6fPUHHwPamRHzj1pT9NbQ2w8Sb6PfFAfyQOcarTtD6TDhZh UlExX1HRG61/ibBIQMiLA8moTFIAlyKPIyM4W4QGWZPnC4GZJYcznsEE8BCZnMu72FYZ92GGXpDk /vHHxwTzs+Uu+0KkciJjm6tC/Foh4fboEfZd27xuv7HuUyrtv8Z9LqZy/T9+bAkdkyWndP2gHIwF UgbgIVIjep+R3k8tuT/78HbkKbZMkOc+eejscvvzV//UEWWmSQWOnlDZyAZUydZnBW5Uh8k9dgXA QLtCHqTevAzxDCYAKMSzu/4ItiTTK6F79JE/xujorv2Ujg0VhLVfwAtQeS4cr2SQvor3nDlWmrFf 8t2rPqYmeVUdj0vQUXZ2ktJ6n4zmr5hnrUvBSeEhGLlGpXlURrtEN4YFvgm236Z0sv3+RvDcLe9u 33rjrjjdie03/EL/UP4rXHf4Z9jYV79N2X5/dtuqEyUoMBGLuMvW2jANYwvIvSriEXbO6rbD7AsB e9d+JImMkzCS2SL/xd4/XiLpQvxAVher3Pj5KcjhKsRJb7lL0jxAUtuPYwZsiCTBcNi/rLJPpjME PxWMCY8UjW04YqvHN9uKs3jm2I1DFpnUSH/sip7J05R5z/XvUVa7OzvwExdyQZdugbpvDHZFVBjD p2XJ4ax5gmm9LgN4h0JXad+/OLs6XISo3bWBHSFhn/W35DomjMoYs9+8ghnXZs8BySNWyYEwP5hZ G+YX4DqCSamQzBVF8pM/bnZSJU8BMCY8uABgEiLjX2z7hUPdId8qmXjKxTiebIKqispI85B84R3C XkjG8+u1QG7X4lwx543TLd5eqReFWgnzTY7o2UNBeVGi066db9LqMwqN6b1EXj4d+JGsHsBd7Gj3 kNnlGcJWpSwm42DbKQnnNBUajLyLlSWjR0ipIlnLVM6Wl+m8D4uSa5TqmNBfBa/CZOyBwPbblK62 36sFivo2PbJmbL9NhYT2whhRO23CZvty3xoTraCVE1jS7hrHzuR2byHgQt2zp4qOXtkXSg6P/9tq K6q9/P5jt9jjbNGFlKvXNrBKI4HHpLfcJcH2W8SSPimYkjA3Eb7uT6ZVlo7Nu9gZ0QhN4rjHy5J3 xL7OtGzXTNF8WQk2feXULXwW9y8XdSTAik65Iss7f5cczppHZaq6bL3+BXiY1N/Iu387mbMPmAhL cS1GEb00b0vJYdNljJ3aLRpo3Inuv437MOwFbE6xkSFVrH6+zvif5y/Rw/Zrju8xWqFXAD5CNNVy 9c9/CLNNRkdGnLyJvNLtU+eiJvt5nandYtKTjL78jnosCmSiURl7qIstnwo8v5PS1SvDs68BnmTM v6ZMJqVXbOaFjgmdvK0b4fakP4NKOQGcI1ojoi9K+nKCf+WhpBJam48otvXA9jsQ2H6bso7tN73x ZLXfZkROVJwIm7Rvt02B6Te7/RLJvg11YSbVZZ7RIssnVaqiMpPecpdkQftPC5b0SQF04onkULcE U+GJIsWCSUY9zq6PJWScAiJbtDXJdx6nl9r7ONU5ptmGhiWHM6IyANCY5e6bKrwmmVe68T24uqvM b3G8SGXbHrk9SEvZ5z3VNxbW/GzPCFIGAOAeUYNzy9P9HpEdJrbOKqrQryicPb+XyJpyvpG+GZ/m M5iYtQQAtUQHiHJDTlcyBudG7fOM1Xu/+HZdLXfuBdKNOp1Qn5mYtQzLZ5dWZaAHFwC236Zg+23H 431rjP+jfqOGNtml/F/o28Yr/fgLPQe7lSldQia/bk7mirRYqHltqv1DZT0y1C13STqt9rudZd4I zZI+KYCJGM3226By5Sns1CQ5R2l/rYXvN3MkCKkLzEw4Liw5nHV6MrYUhnmRuF4XA8CwPJzJ6nD7 kgpFrmkn99YcTOKpo+MMX1olrw53rju8RXMpY4z5SIALYGG6BUU6E17UBFcaLsfn7b1HmNFCxMDg 8OACAIDhSX0htNvvhQfuf99c3hEMI8Nk7IHA9tsUbL/toG/boa1GiRqeU9sr27m5GeUhxXbPeZ1q Z8l5PspQt9wlecf+E3bu4KGaJX1SAOVMkHZ5iAmuVHp6E80tuYqwTMxAvBfbnjr5gdBL3vYbLqys 1GRemSWHs062X0nqO9B6nQsA8DCeAEmomagHKHqw/EYxB9ukyn8NqWZ+DxifQP8uTm8pY3WMFC7b RtQMAECOlM+3YCg99u/hHG1vw3t1eRg56dt78sHvfMaJ3KxENPQSKhh3N2rmTbpKmaiOUWKWE2oG YAQenqI8FUNf1CPL8XnS40IuSgz00lWzqqBhAtf4vGD7jYoVFIzC9tsYrKnlpBbbTXlM6dt2ZK+o srpcLsZu2TVIoh+UUkoro8UTn7x/5a+LUS5i8iWHuuUuSdcoSH4y9shTtQkXwcchfD4gdW9KOMgF aRQd3ICdU2gdriN8eaD8rb03Hl7DStppM25TsORwxmRsAIAPYPzHWfnbT4c3uTSf3Ky0qk/Mefpg nMdx+0/lLA/MjHIFX+QFKVMYzgUAgOepfdCBzS3tJX+ju9jiCZHDQKN0oUYZJ0JzQVTZxrv9BP3o avtN2XtTdmAAAHiA2OhqlP6N2sfe2B34WK79GOaN2QtruRBNLC8TW4dlZG6KKgaxV+gdlZEPMbB4 uz4Ltt+mYE1tB33bjmduC6fZJVWmN6RfeI8/aB1IJddr/KCWGVwWpQaxoW65S8Jqv0Us6ZMCgIko HJLOb1S7cbcw/GDXnvHWkrEuYNVxJvawZuEoYw4aSw5nC15SC5Z87wFgaq5MK/OmHrnL6z0lR9Zb Y6aQKUaJJYezFx5cAAAAL+BpH5tvEtszk7G1+zAmu1EFkRultdkDNp8ivOTlNMOgMBkbAOAb1C4W vFth5Dp4en8Yk5yq4w/he1jGmPjkpqjlxRaWE6DOL2pg0DHdQMoMBLbfpmBNbcfdvn3uo0vfXq4e XGDFXJ6f90ZWt4rHW6ZFH3uDBhy15EGm49py2Nh+77BgzqwFSyYXAUbhiukDnu+233RrkT2Sj5yU tt/LfM1GM+DnesnhjKgMALxBakD71EA3IFGtEYgmL/BQuFywCt5ex7pTvJ4egAdSBgDeoGzIhAyP d9XvgO5bo3XdmcpljUoIVwQN1IKUAYCX8NQMOmYcrG/3TFXY9JPdYl9WaRqllFbm55UJLDI/O/CE YRuCjH1AygwEtt+mYPttx/UTyScUFgx69G3D6vusJB1dvde+TcUn2g62vb6gUaVwsRInbwQeU+jI fsgWw/Z7nYHsP/o3eW+U9kiW9EkBvEPhvZW/uJfQ+/oxv1/3u7LW7ho0+ytpFtZimRlb0lZUYhUb +evGwo7goT7LSw5nLJEHAH0JV2GLbocXkbIl9f64a+udEiqVMMF4cgQRpNle21baAmPO35YKD1ow kJRZTycCwAnOkIlXZhjcRxmE6SZbzknpxBb59Y4gf5UlnTWFxUFDaVIiVgbUNHy0mzKQlAGAb+Fp F9TMALgiI/leOO+S1ur3ZkbKuyvFHRu99JMoEfH8FuoSW2w0HaMIzDQG2+9AYPttCrbfdlw50eG0 cL+bZw9F37arvrsVlbKTj5SWvyr7q9ofW6C11mLmkXy+gXgRphBTxZwZTMGwL22/melOw5LXMdh+ 79DV/pM39mL7BfgoBGPeo9aEHXmv9M+2Un5SL1QjFxQuPYLwytSe/V1e/6QvOZyRYAIA+C7hoOaJ lZTOPCY6yUVojIlnjkStTFNMsZpxDMl7Eipvsnmd5fTDQDSXMp+NdwFAKdzjJyXqdrqjIYxRutQc EyaYttcDen43CD62o7mU+ens4sJNGwMAAI8R3rGdyEgyBpPffkGIyDTTmDoGmtLD9mt2vF9DOjRm ZLD9NgXbbzvo23aMc1uQvuC4XTew/W5OYfkTbpQH2lb4lT+yAXaL3CuLpSqOgzRBB7uw/V5nQftP C5b0SQEAhBTmQZxiWnuLAqeOE+7N+Ii9VJFn9ZWvZ4nEjDCMLDmcYfsFAIB7ZBYFrkX4iCvOH4Rh QiU0AprVZdrwgpTJx7vWU4sAsA4fsG6m5iudbgxNwLXYiVAq5nqRi8qUpJBG0zGWD3yIetN7ibyP 5O0AAFbCs7w4K+mJX1XxQjURdi/OtjqfCsTQsT2hYzztki/8LoyEz9JVyogHvuP8jTCOvy9fBtvv zcJYUy/XfadvN+tG2Lddunec20Lukh/93B5HS23fMI5pxk5f8hYCHjY244Ht9w4DrfY7Mkv6pACg lCK36jfYL/zoAH2+Ml5Qe38h/ML2deHgm/LH2Nc1V/UCb318lhzOsP0CAJzhPeryszpGJbvi7AFD kdfaemLsZOqzzEsmtRTuGnxy05c/RI/D4yQBAAqw4QKGoPqucNeVKSqvAuHyq26MVhXHGtMrA8/S NSqzrfy7ZHQLABak0BryhRvac10Rz9TZtWSMW1Qe/pinnctCyYlOp42BNXjH9qvT9GzPaIzj78uX wfZ7szC238t1e/etmKLjxQe0qg81XGKU20JwyTZ94/zswRrvJ3oiLVcHtl5d7WxXUh25XS3Pq9Im 35GjMm7eDdvvdV6w/eYZM2BDJAng69iQgGcW+SDZrvCMNCWEUZla569skNxiXxcd7lW6faCWHM56 J5h6ng4A4Bm8AfvLaqamKwofXCAyR7/XobdYHk1Mnsq2dAYFA4/wzgymMDyDygGAQYkO1d9UM426 4kwbhTO05aSn35YgwWSC8NH1FsLYvDCDqTDrDwAwBKlB+ms6Rj3ZFceaNNF9WssYjGfBiR8weGj2 XDAG3uG1BxeEK/yiZkbx952VwfZ7szC238t16dt21e/0bWrv+cZfLino2/KV8s6YaM3f1BVj+z3l HdtveNLMrhFY0icFAPA4+VxTbq9c+VcUdezF2llZ2A7+Udvv9gLzr8eSw9kLXploJ25LzvRvDAAA PMj1UdIYo7WKCY7I4BAbL2bMK3m4Eav32jEbPLgAAAA6cTI8px3Ep+N6KugyRTAGbsKDCwAAYBg8 l4x97YVh5PqEYsk++Cbrz2DKLCI82irD4/j78mWw/d4sjDX1cl36tl31d2y/wRa9rfwr/v1tFxtF 0Z9JxvxW19PhDKZJJzRJsP2e0tv+E7X3tvP8lhiNJakGLOmTAgAYhYwGVX7QJfoc7GgtNZvtV9Jo zFlyOOvtlbH23g6r5J1+P4vKKQAA6I13/7c3ZCtaROJpTyg5C+Dhlfky78xgYrVfAACIsn3T3H9J bjT71n2fmwGcPyoD5bwzg6mDcLFxl1Tu0GvDVnLJyBsAwDTYm7AbbjkWkpG+YPlYgjN4dsHCMINp IMbx9+XLYPu9WRhr6uW69G276kPYfn8r4J212XvOZNkaM/PqGGy/p7wQhEj5VB5siTxg+ekyzSBa AwDQiZgJpnoW0rYosGsWfraZrcH2W85rz2Cq2vXUKQAAYHTchNEx7NpVZLyRONyiIqGa2adkQ4au UiY1NbrFEyVbzIeKrkOTDzvzK7/yK7/ya/Wv4fTSXcdovS8no9xMk32dWlNjtqjMxs2eDGnX1Bd5 4XGSmbVbMnujhSXl6aTUiTIN0CtG5AAAhma/z0cfMxl/kTnYbFKGBFM5a9p+QwU6hRq92cLy6iUl M2VSu8Lt17Y04s6JquqeFn6kb6Mb81/R2kHftmOc20K+QGE3RjceW7aIi/3ZMSqy0TvEYjpGCWH2 7C13SWaNyuRPkSIVuTltwJIyFgBgaOz9PHr7dfNQfpWw+IRqpsWws+Rw1jUqI5WExyM6ZjuCh9ye acZTDQAAgDv87s3SEFMVWgi/piozo46Bct5ZIu8jIS8AALiCF3Gxc7MlqZBM6KRUWk0YleGbdTkv PINJpU27PZsRumcIyQAADEF4N46qGUloEyl46iSswTu231QaqHMbMr++wjj+vnwZbL83C2NNvVyX vm1XfQjbb578XXpbXSZdZl5Zg+33lAXtPy1Y0icFADAgTvAlH4nJHEJEZaZLLW0wGbucNSdjAwDA Ciw36JbzjXjKM7xj+wUAAFCJATvcWCRptPPwpqPunlqaKzzzYRVXDVIGAABeIzoP6eIonrEG187o hqkgwTQQ4/j78mWw/d4sjDX1cl36tl31CWy/WX6rAStjX6h9RZnfxqlCMkodsSlsv6csaP9pwZI+ KQCAAbkelbGVre3XxCdp32tgJ4y60xFJlhzOSDABAMDkSL2Sej2PiPmxnOBoB1IGAAAmxxv1g4c3 fSPN8l0GkjI8BQkAAK6Qkir7djNdSAZqwPY7EOP4+/JlsP3eLIw19XJd+rZd9ZFsv/WXLJf69R7e tO81Shsz05q/tlew/Z6yoP2nBUv6pAAAlsJdV+a32q+dhr1vfLuVFbQYdpYczgZKMAEAAFzHXVfG GKWU2DKbjoFySDABAMASRKdxb/rm1gzvd5goF/Y6A0kZrfVHsnoAAPA8GbGyhWiMMkpvppkJmKOV QzCQlIFx/H35Mth+bxbGmnq5Ln3brvo4tt/n+3ZzydjlgJWZ61sztt9TBrL/jDwZe0mfFADAh9Ba mZlETKMxZ8nhDNsvAAB8AGOU1tISPJGsgTxIGQAAWBShVrQyys5gQsSsBVIGAAAWRWRSnDjMFJmm CWddvQW234EYx9+XL4Pt92ZhrKmX69K37aqvbPvdj3ss/qtnmMR0PEAK2+8Jze0/tf04ph1pSZ8U AMBXEAvlzRGS2daVaTDuLDmcEZUBAIClcTM1U+gYpVhXpoLmXpn11B8AAMyEOwzZhzKNDl6ZYrD9 AgDAJ9gWL5tm+hI6phgSTAMxjr8vXwbb783CWFMv16Vv21Vf3/a7PbhA/MwCtt9TFrT/tGBJnxQA wJcZfJRntd9ymieY1pjBBAAAUzO4cIE7kGACAID14Wvywgwxg8lGbgjJAABAI7wRZvA4DROYynk/ KoOOsYzj78uXwfZ7szDW1Mt16dt21b9g+5XnaH6K58D2e8qb9p+JRMySPikAgK8x0ciO7becd9aV mUjEAADACmitzD7m1D++wCitlZG//o6qGMXe5wUpg44BAIDebKv8Xh13PMmCghmKrlIGEQMAAK/h qhkZaLHPmoQZ6WT71VqjY04Zx9+XL4Pt92ZhrKmX69K37ap/xParldH6+Fec1NcxqZFq226U7vYE BGy/p/Sw/ywgYpb0SQEAfIK8CFNGbd4XY7aQjQ3cvCsDtiY9ftglh7Ouq/2WyMP1uhgAAN4ktZ7M T7A4ZbadQ8QyGA2L4cnYAADwGbSYiKTl5tID7FEbZjANxBCr/QIAADRnm4+9v1BugKZQzaBdBuT9 1X7BMo6/L18G2+/NwlhTL9elb9tVX9/2G8zE9k5kzO9HBbmd0OGrldl+WrTUPxe23zMWtP+0YEmf FADARwmiMtfw1s17Flb7LYeoDAAAfBcbhslFZRJDf9uozDcCKo+A7RcAAD6E1kqmjKJTljK/2kcf iInbbWIzy8VO2oGUAQCADyEVgreQjLcxUldppcxPDO1RGYzAr0OCaSDG8ffly2D7vVkYa+rluvRt u+rr2373JX3ljxJRGbkxeQRV9xDKR8D2e0pz+8/Wj7ObjJb0SQEAfJzTqIwXnvnlpSqfqn2BRkv9 qkWHsxceJ7leJwIAwCfoNX61EjKLglcGAAC+gRt+SUVWvAiNdwAYkE5SpvxJTMRsAABgEEZ4riSc 0tz2izQpZxx/X74Mtt+bhbGmXq5L37arvqztN3W03Efl2HlqBO4Att9Tutp/5vXKLOmTAgD4BDav 5L6Qxt7kDX4v6awh43mBzSGMnpqYje23CrwyAACwNJ5aySmXRN19Drb816L3ZWYeBNtvFV2ljFWC YchrPZEIAACjYAMpVTrmqOut7Ktt9EU+aZK18t7ihahMKnuKmgEAgMfwLDhWZ8QmJdmyuUyT+kVo NnFzsCetQqEDfei92q/VMUbg7fos4/j78mWw/d4sjDX1cl36tl31BW2/8hGRxhilfz/isZEqeJyk bMfxs5X0ntvkNjq+/VrDlXaCPdh+z3jB9qti6aTMrhEgaAQAMDHC51tI1TRsqzwejMc0GnOWHM5e SDBFO9EY8xHxCAAAXdn9Mce0oOIZTPY52LZcOJtpK7i7f7XaBU1VpsmocARcTXC0g8dJAgDAukR1 SurJ14VHCKcw8VX8VZiMDQAA65KJt5TIj4QSMpv/N1+1JqwiCy+X/2nOC1GZcnfY1xjH35cvg+33 ZmGsqZfr0rftqi9o+30E+cwmsbqM/9r9uXlOrZ3AD7bfU3rbf6L23sE9v2pRnxQAwMcJLC/npWVh p+I+kN2XMr94Eav9FtM7wWTtvaySBwAAQ3GiaTL7busYP93FgFjDOzOY0DEAAPA6dlGZ2ioH4XC2 T1ySs5lO8YqZ0kgRKPWW7RfhAgAAK2CMcvWMFSVVERqiMndgMvZAjOPvy5fB9nuzMNbUy3Xp23bV P2j7fbBvjTmW6C2bGRUcLe0XxvZ7yoL2nxYs6ZMCAICNOv+vW0vWP544eRtW+y2HqAwAAMAVDh0T 2eo/SgnawRJ5AADwRcI1e8ONqiQ64q4dbF/eic0YpZXGMVMKUgYAAL6I1AlXEkxaJpJ2n8zNJsko DjqmGBJMAzGOvy9fBtvvzcJYUy/XpW/bVcf2W119SyHtht/thRJy5EKC6Wf+NcZZZRjb7xkL2n9a sKRPCgAANqqjMraoE5u5TrfJ2EsOZ10TTFF5uF6fAgDAyERDFaFX5mTl303N/B4tqQ4t9JvCVLf+ r/aeb8kSeTV0kjKnUV8EDQAA9CEccKofxuS98PdWP1QSl8wdekgZdx0h/x2Sj2RC0AAAwOh4huFw 7xaV2VeaKTmkLMZTC2rpZ/s1xkSVSmr7BxnH35cvg+33ZmGsqZfr0rftqmP7VYXREK2dn2gB91jS CJw66s87bJ3CzuxubL8nNLf/lIdbRg7MLOmTAgCAjYtxECk4nlvnV7VMMS05nLGuDAAAQB3axlnk xqd0DOvjVYKUAQAAqMMYZz62slOQ7Mq/xmzzmK48HxsRUwlL5AEAwNepFg+pjJRnlDFGibXyTr0y lY2AH0iZgRjH35cvg+33ZmGsqZfr0rftqmP7rcOYsw4R/+5zszMRmq3Mr4BrKMb2ewq23yKW9EkB AMB1PAXmrXEnF81TvwxU1eEbjTlLDmd4ZQAAAOrxBIF2d9lMU1lYJFZuNcHRjvdX+wUAAJgaf4g7 YjE5f8yGbw1eLmTSAaIyAAAAV/mpmMAKc3hlHGliU07JfBNL/dbT3PZrKmndnpEZx9+XL4Pt92Zh rKmX69K37apj+71efZumZIIVe7eNRqmC2Ul6P06oY7D9nrKg/acFS/qkAADgEX6RlCPgYo5J2XuU Re/5Ji8qY5+nrVxt1KypCw5nJJgAAABuEw9BKc8tk5yV7S1IAzX0kzLhXGsZ+FpPJAIAwIeIPi9Z OSGZKFLc8Ezsa7w2gymaHEXQAADA4ER1ifxu7htjtpyOPn+IgT7ED1TQY7VfK1NCpYLbVzKOvy9f BtvvzcJYUy/XpW/bVcf2W85h5jX2tbKvjdLOmCbX/VVK+oK9f49dZR0y1A32XTqt9qtiqaVosmlM WbOkTwoAAB6hXDDYR07KtYB1x6FvyeGsU4LptOPM2fMsAAAAhsVf+9fLE+nj2QV2sRnpkgkHwOX0 RkOYwQQAANCAxPdz+0gmJyqjmMF0HZ6MDQAA0ADpo9k2nD6QiezEJV6QMkxWSjGOvy9fBtvvzcJY Uy/XpW/bVcf226q6DbvILYGs0WJX4YmGusG+Syfbb97zm98+Akv6pAAAoBGHerFJpGgxz/bbfl2Z JYezHs9gUkIY5tXlev0LAAAfRe/TqktCI9qfgw3l9F7td8OTLB+JgAEAwEf4JZEscpjbRkDmLD1H D6+MJ1y8ZNPgK8oAAACUEv1mbtNGVsS4iSSW+L1JJ9uvEaT29mnJyIzj78uXwfZ7szDW1Mt16dt2 1bH9tqrulUsMdt1uuUuyoP2nBUv6pAAA4AFkiMV7rZS/y3UB9zT87q1YcDhbdom8jDWnqgwAAECO cLq1iksT/XvakpI2GmuysLOzGY5qGcL22/RcKiFCoyFNBA0AAFTjqZlEiOXYFkZl4Aadnowd6oZ2 CTwrSqQ7JyVceDT363wklfsK9G076Nt2zNq3Nm1UmCry8lBwg36r/aIbThnH35cvM6kH7YPW1G7Q t+0Y57bQzfbbjQf61vsR++SPtqYZq3Uk24Oyl7vl9uSF1X7z21uc0dtyoUlL+qQGgb5tB33bDvq2 HRP3rdUNmfa75l9sv4/A4yQHYpyvX/kyk35FIHLQDvq2HePcFojKnFTXYvGYmKXhRyI2k2nKpLfc niw4g8kYE3px1hOhAAAwCjp4YKTYshk2c3WdhYGhmgWlDAAAQD+iuSGhZrT3dVrkobYwjtryPh2a uih4ZYqa9JEYHQAALM96aYpZozKhtpCTrsOnPm0pp8vv33pvPAAAPE/evWv3hi/gBth+AQAAHqJE x3jlifrfplNUptyAXRj/IEwCAAAzkRq2GM5u88WoTH7933faBAAAAJdoHpXpLA6ithhkCgAADATj 0aMsuOpfKpnlXenl3BYAAACMw4JSZkMqldQ1lpQBAACAkVlWygAAAMAXmHVdmaEgutOBJR+B9i48 3KMd3BMagTGgNZN+dJEydwktxhO9/bPAasuN4LPaAu4J7aBjmzLvR/eLk7GfZZZ3GgBegVsEQGuQ MjA6E30zmAh6FaaGDzBISDA9g82A8NcFszBpUnwWuCfAdGwLs8lfX2xMFUiZZ5CP3Z7o7R8f+rMd kybFp0D2J337OHRpI/DKAMBMzHKHmhS6F6AnRGUO8s83mDTsNgjX+nbbbvdO9BWhJ3xu20HftuNy 33IfKOFrH12iMkWEz56U4+sbLVqHTN8agVrlT64nfG7bkelbYufHFgAAAypJREFUuAl925Qlu5eo zI/MexnKW0/Srqdwn+Vy38IpfG7bQd+2g3tCUz740UXKPPB3MtH73ZkH70F0sgef23bQt+2gb5vy 2e79eoLpdMJkNOO4/cp3hTz0bTvo23bQt+2gb5vy5e4lKjOrCJ0C+rYd9G076Nt20LdN+Wz3fj0q 89k3vgP0bTvo23bQt+2gb5vy5e79upQBAACAqUHKAAAAwMQgZQAAAGBikDIAAAAwMUgZAAAAmBik zAnROff5x1tAIfRtO+jbdtC37aBvm7Jw9yJlAAAAYGJYIu+c7bEUnpKdXcMOAn3bDvq2HfRtO+jb pqzavURlioiu9AyPQN+2g75tB33bDvq2KUt2r17jMgAAAOCbEJUBAACAiUHKAAAAwMQgZQAAAGBi kDIAAAAwMUgZAAAAmBikDAAAAEwMUgYAAAAmBikDAAAAE4OUAQAAgIlBygAAAMDE8DhJgImRj4Xj ISQpor20bUx1Wn5v4SkAoA9EZQBmxXu8LQDANyEqAzA3xAAKadpR28ERlwCvQFQGAAAAJoaoDMB8 yG//0tVhX9sCMhRR4ufwykQPHpaPboyeKGxhqjG1Bpdad0sVmXALUTGA10HKAKxGOO6mtqSETmrL 5VNntM7262lLUAwAkAIpAzAfmTCJLJDZmJIpJWUKm1d4oq1AKFaiBbZwTli4aUgmemRsMQDjgFcG YDVKhnnPppopU07JicIjn7a2aTxGJzit1aFtAFAIURmAT9AtitDiRJ6yiQZmuoGOARgNpAwAzM2d 7FKJ/Tm6HR0DMA5IGYBP0G3o7XCitwIz6BiAMcErAwAT0z9xho4BGA2kDMAniM5wbqEDWpwoPILn Jm4tL9AxACODlAFYHG9Ws3xtd0XnGUX1R3iQqhMVtjZzlv6gYwAGB68MwPrY1XXLpxlfO0j5iU7J zN/2ztWN6OnQNwCvQ1QG4BOEy72UbDk9yIUTlTS1aoUbxATAx2E5cABI0noV3TuU5326XcXI3QWw MERlAGBi0A0AgFcGAGbisj/mrUdnA0BriMoAwKwQkgEAhVcGAAAApoaoDAAAAEwMUgYAAAAm5j/4 qsrVy544LQAAAABJRU5ErkJggg== "
     id="image2993"
     x="0"
     y="0" />
  <g
     style="fill:#0000ff;fill-opacity:1"
     transform="matrix(2,0,0,2,1133.9471,-406.55348)"
     id="g3081">
    <path
       inkscape:connector-curvature="0"
       d="m -257.24868,230.0306 0.032,0 0.016,0 0.032,0 0.032,0 0.032,0 0.032,0 0.016,0 0.032,0 0.016,0 0.032,-0.016 0.016,0 0.016,0 0.016,-0.016 0.032,0 0.016,-0.016 0.016,0 0.016,-0.016 0,-0.016 0.016,-0.016 0.016,0 0.016,-0.032 0,-0.016 0.016,0 0,-0.016 0,-0.016 0,0 0.016,-0.016 0,-0.016 0,-0.016 0,0 0.016,-0.016 0,-0.016 0,-0.016 0,-0.016 0,-0.016 0,-0.016 0,-0.016 0,-0.016 0,-0.016 0,-0.016 0,-0.032 0,-0.016 c 0,-0.496 -0.096,-1.648 -0.88,-2.448 -0.592,-0.576 -1.44,-0.864 -2.544,-0.864 -2.544,0 -3.936,1.648 -3.936,3.632 0,2.144 1.6,3.68 4.16,3.68 2.528,0 3.2,-1.68 3.2,-1.952 0,-0.288 -0.304,-0.288 -0.368,-0.288 -0.272,0 -0.304,0.08 -0.4,0.336 -0.336,0.752 -1.248,1.264 -2.288,1.264 -2.24,0 -2.256,-2.112 -2.256,-2.928 v -0.528 c 0.032,-0.624 0.048,-1.28 0.384,-1.808 0.4,-0.64 1.04,-0.832 1.504,-0.832 1.872,0 1.904,2.08 1.92,2.64 h -3.808 v 0.528 z"
       style="font-style:normal;font-variant:normal;font-weight:normal;font-stretch:normal;letter-spacing:normal;word-spacing:normal;text-anchor:start;fill:#0000ff;fill-opacity:1;stroke:#000000;stroke-width:0;stroke-linecap:butt;stroke-linejoin:miter;stroke-miterlimit:10.43299961;stroke-opacity:1;stroke-dasharray:none;stroke-dashoffset:0"
       id="path3020" />
    <path
       inkscape:connector-curvature="0"
       d="m -248.16068,227.5186 0.016,-0.048 0.032,-0.032 0,-0.016 0.016,-0.016 0.016,-0.016 0,-0.016 0.016,-0.016 0.016,-0.016 0.016,-0.016 0.016,-0.016 0.032,-0.016 0.016,-0.016 0.032,0 0.032,-0.016 0.016,-0.016 0.048,0 0.032,-0.016 0.032,0 0.048,-0.016 0.016,0 0.032,0 0.016,0 0.032,-0.016 0.032,0 0.016,0 0.032,0 0.032,0 0.032,0 0.032,-0.016 0.032,0 0.032,0 0.048,0 0.032,0 0.032,0 0.048,0 0.032,0 0.048,0 0.048,0 0.032,0 0.048,0 0.048,0 v -0.752 c -0.4,0.032 -0.864,0.048 -1.264,0.048 -0.384,0 -1.104,-0.032 -1.44,-0.048 v 0.752 c 0.304,0 0.752,0.048 0.752,0.176 0,0.016 0,0.048 -0.064,0.192 l -1.856,3.984 -2.032,-4.352 h 0.864 v -0.752 c -0.528,0.032 -1.952,0.048 -1.968,0.048 -0.448,0 -1.168,-0.032 -1.824,-0.048 v 0.752 h 1.024 l 2.784,5.984 c 0.192,0.4 0.4,0.4 0.608,0.4 0.272,0 0.432,-0.048 0.592,-0.384 z"
       style="font-style:normal;font-variant:normal;font-weight:normal;font-stretch:normal;letter-spacing:normal;word-spacing:normal;text-anchor:start;fill:#0000ff;fill-opacity:1;stroke:#000000;stroke-width:0;stroke-linecap:butt;stroke-linejoin:miter;stroke-miterlimit:10.43299961;stroke-opacity:1;stroke-dasharray:none;stroke-dashoffset:0"
       id="path3022" />
    <path
       inkscape:connector-curvature="0"
       d="m -239.69668,230.0306 0.048,0 0.016,0 0.032,0 0.032,0 0.032,0 0.032,0 0.016,0 0.032,0 0.016,0 0.032,-0.016 0.016,0 0.016,0 0.016,-0.016 0.032,0 0.016,-0.016 0.016,0 0.016,-0.016 0,-0.016 0.016,-0.016 0.016,0 0.016,-0.032 0,-0.016 0.016,0 0,-0.016 0,-0.016 0,0 0.016,-0.016 0,-0.016 0,-0.016 0,0 0.016,-0.016 0,-0.016 0,-0.016 0,-0.016 0,-0.016 0,-0.016 0,-0.016 0,-0.016 0,-0.016 0,-0.016 0,-0.032 0,-0.016 c 0,-0.496 -0.096,-1.648 -0.88,-2.448 -0.592,-0.576 -1.44,-0.864 -2.544,-0.864 -2.544,0 -3.936,1.648 -3.936,3.632 0,2.144 1.6,3.68 4.16,3.68 2.528,0 3.2,-1.68 3.2,-1.952 0,-0.288 -0.288,-0.288 -0.368,-0.288 -0.272,0 -0.304,0.08 -0.4,0.336 -0.336,0.752 -1.248,1.264 -2.288,1.264 -2.24,0 -2.256,-2.112 -2.256,-2.928 v -0.528 c 0.032,-0.624 0.048,-1.28 0.384,-1.808 0.416,-0.64 1.04,-0.832 1.504,-0.832 1.872,0 1.904,2.08 1.92,2.64 h -3.808 v 0.528 z"
       style="font-style:normal;font-variant:normal;font-weight:normal;font-stretch:normal;letter-spacing:normal;word-spacing:normal;text-anchor:start;fill:#0000ff;fill-opacity:1;stroke:#000000;stroke-width:0;stroke-linecap:butt;stroke-linejoin:miter;stroke-miterlimit:10.43299961;stroke-opacity:1;stroke-dasharray:none;stroke-dashoffset:0"
       id="path3024" />
    <path
       inkscape:connector-curvature="0"
       d="m -236.83268,227.8386 v 4.912 h -1.104 v 0.752 c 0.448,-0.016 1.408,-0.048 2.016,-0.048 0.624,0 1.552,0.032 2,0.048 v -0.752 h -1.104 v -3.328 c 0,-1.728 1.376,-2.512 2.384,-2.512 0.544,0 0.88,0.336 0.88,1.536 v 4.304 h -1.104 v 0.752 c 0.448,-0.016 1.408,-0.048 2,-0.048 0.624,0 1.568,0.032 2.016,0.048 v -0.752 h -1.104 v -4.128 c 0,-1.664 -0.864,-2.288 -2.448,-2.288 -1.536,0 -2.384,0.912 -2.8,1.712 v -1.712 l -2.736,0.128 v 0.752 c 0.992,0 1.104,0 1.104,0.624 z"
       style="font-style:normal;font-variant:normal;font-weight:normal;font-stretch:normal;letter-spacing:normal;word-spacing:normal;text-anchor:start;fill:#0000ff;fill-opacity:1;stroke:#000000;stroke-width:0;stroke-linecap:butt;stroke-linejoin:miter;stroke-miterlimit:10.43299961;stroke-opacity:1;stroke-dasharray:none;stroke-dashoffset:0"
       id="path3026" />
  </g>
  <g
     style="fill:#ff0000;fill-opacity:1"
     transform="matrix(2,0,0,2,1133.9471,-406.55348)"
     id="g3087">
    <path
       inkscape:connector-curvature="0"
       d="m -255.98468,249.1666 0,-0.208 -0.016,-0.192 -0.016,-0.192 -0.032,-0.192 -0.032,-0.176 -0.048,-0.192 -0.064,-0.176 -0.064,-0.16 -0.064,-0.176 -0.08,-0.16 -0.08,-0.16 -0.096,-0.144 -0.112,-0.144 -0.112,-0.144 -0.112,-0.144 -0.128,-0.128 -0.128,-0.112 -0.144,-0.112 -0.144,-0.112 -0.16,-0.112 -0.16,-0.096 -0.176,-0.08 -0.176,-0.08 -0.192,-0.08 -0.192,-0.064 -0.192,-0.048 -0.208,-0.048 -0.208,-0.048 -0.224,-0.032 -0.224,-0.016 -0.24,-0.016 -0.24,-0.016 v 0.576 c 0.672,0 1.344,0.256 1.696,0.816 0.336,0.544 0.336,1.424 0.336,2.192 0,1.376 0,3.104 -2.032,3.104 h 0 c -2.016,0 -2.016,-1.728 -2.016,-3.104 0,-0.72 0,-1.536 0.272,-2.08 0.288,-0.592 0.96,-0.928 1.744,-0.928 v -0.576 c -2.608,0 -4.064,1.632 -4.064,3.76 0,1.968 1.408,3.568 4.064,3.568 2.672,0 4.064,-1.616 4.064,-3.568 z"
       style="font-style:normal;font-variant:normal;font-weight:normal;font-stretch:normal;letter-spacing:normal;word-spacing:normal;text-anchor:start;fill:#ff0000;fill-opacity:1;stroke:#000000;stroke-width:0;stroke-linecap:butt;stroke-linejoin:miter;stroke-miterlimit:10.43299961;stroke-opacity:1;stroke-dasharray:none;stroke-dashoffset:0"
       id="path3028" />
    <path
       inkscape:connector-curvature="0"
       d="m -248.28868,251.9506 v 0.784 l 2.912,-0.096 v -0.752 c -0.976,0 -1.088,0 -1.088,-0.624 v -9.696 l -2.832,0.128 v 0.752 c 0.992,0 1.104,0 1.104,0.624 v 3.104 c -0.8,-0.624 -1.632,-0.72 -2.144,-0.72 -2.336,0 -4,1.408 -4,3.664 0,2.096 1.456,3.616 3.824,3.616 l 0.16,-0.576 c -1.952,0 -1.952,-1.936 -1.952,-3.04 0,-0.768 0,-1.632 0.416,-2.256 0.464,-0.672 1.216,-0.832 1.712,-0.832 0.896,0 1.536,0.512 1.888,0.976 h 0 v 3.984 c -0.208,0.288 -0.864,1.168 -2.064,1.168 l -0.16,0.576 c 0.96,0 1.728,-0.384 2.224,-0.784 z"
       style="font-style:normal;font-variant:normal;font-weight:normal;font-stretch:normal;letter-spacing:normal;word-spacing:normal;text-anchor:start;fill:#ff0000;fill-opacity:1;stroke:#000000;stroke-width:0;stroke-linecap:butt;stroke-linejoin:miter;stroke-miterlimit:10.43299961;stroke-opacity:1;stroke-dasharray:none;stroke-dashoffset:0"
       id="path3030" />
    <path
       inkscape:connector-curvature="0"
       d="m -238.09668,251.9506 v 0.784 l 2.912,-0.096 v -0.752 c -0.992,0 -1.088,0 -1.088,-0.624 v -9.696 l -2.832,0.128 v 0.752 c 0.992,0 1.104,0 1.104,0.624 v 3.104 c -0.8,-0.624 -1.632,-0.72 -2.16,-0.72 -2.32,0 -4,1.408 -4,3.664 0,2.096 1.472,3.616 3.84,3.616 l 0.144,-0.576 c -1.936,0 -1.936,-1.936 -1.936,-3.04 0,-0.768 0,-1.632 0.416,-2.256 0.464,-0.672 1.2,-0.832 1.696,-0.832 0.912,0 1.552,0.512 1.904,0.976 h 0 v 3.984 c -0.208,0.288 -0.864,1.168 -2.08,1.168 l -0.144,0.576 c 0.96,0 1.728,-0.384 2.224,-0.784 z"
       style="font-style:normal;font-variant:normal;font-weight:normal;font-stretch:normal;letter-spacing:normal;word-spacing:normal;text-anchor:start;fill:#ff0000;fill-opacity:1;stroke:#000000;stroke-width:0;stroke-linecap:butt;stroke-linejoin:miter;stroke-miterlimit:10.43299961;stroke-opacity:1;stroke-dasharray:none;stroke-dashoffset:0"
       id="path3032" />
  </g>
  <path
     inkscape:connector-curvature="0"
     id="path3860"
     d="M 445.55197,36.566616 445.1785,385.0159"
     style="fill:none;stroke:#000000;stroke-width:4;stroke-linecap:butt;stroke-linejoin:miter;stroke-miterlimit:4;stroke-opacity:1;stroke-dasharray:none" />
  <path
     inkscape:connector-curvature="0"
     id="path3860-1"
     d="M 99.530253,34.512518 99.156783,382.9618"
     style="fill:none;stroke:#000000;stroke-width:4;stroke-linecap:butt;stroke-linejoin:miter;stroke-miterlimit:4;stroke-opacity:1;stroke-dasharray:none" />
  <g
     id="g3029"
     ns0:preamble=""
     ns0:text="\\{\n"
     style="font-style:normal;font-variant:normal;font-weight:normal;font-stretch:normal;letter-spacing:normal;word-spacing:normal;text-anchor:start;fill:none;stroke:#000000;stroke-linecap:butt;stroke-linejoin:miter;stroke-miterlimit:10.43299961;stroke-opacity:1;stroke-dasharray:none;stroke-dashoffset:0"
     xml:space="preserve"
     transform="matrix(0,-8.9655634,-34.925974,0,25057.002,2259.5195)">
<path
   id="path3031"
   style="fill:#000000;stroke-width:0"
   d="m 226.25,713.27 0,0.04 0.01,0.04 0,0.04 0.01,0.04 0,0.04 0.01,0.04 0.02,0.05 0.01,0.04 0.02,0.04 0.02,0.05 0.02,0.04 0.02,0.05 0.03,0.04 0.03,0.04 0.03,0.04 0.04,0.05 0.04,0.04 0.04,0.04 0.04,0.03 0.05,0.04 0.06,0.03 0.05,0.04 0.06,0.03 0.07,0.03 0.07,0.03 0.07,0.02 0.08,0.02 0.08,0.02 0.04,0.01 0.04,0.01 0.05,0.01 0.04,0.01 0.05,0 0.05,0.01 0.05,0 0.05,0.01 c 0.05,0.01 0.09,0.04 0.09,0.1 0,0.11 -0.08,0.11 -0.19,0.11 -1,0 -1.91,-0.5 -1.92,-1.24 v -2.27 c 0,-0.39 0,-0.71 -0.39,-1.04 -0.35,-0.29 -0.73,-0.31 -0.95,-0.32 -0.05,-0.01 -0.09,-0.05 -0.09,-0.11 0,-0.1 0.06,-0.1 0.16,-0.11 0.66,-0.04 1.14,-0.4 1.24,-0.88 0.03,-0.11 0.03,-0.13 0.03,-0.49 v -1.97 c 0,-0.42 0,-0.74 0.48,-1.12 0.39,-0.3 1.05,-0.41 1.44,-0.41 0.11,0 0.19,0 0.19,0.11 0,0.1 -0.06,0.1 -0.16,0.11 -0.63,0.04 -1.12,0.36 -1.25,0.87 -0.03,0.09 -0.03,0.11 -0.03,0.47 v 2.09 c 0,0.46 -0.08,0.63 -0.4,0.94 -0.21,0.21 -0.5,0.31 -0.77,0.39 0.81,0.23 1.17,0.69 1.17,1.27 z"
   inkscape:connector-curvature="0" />
</g>  <g
     id="g3831"
     transform="translate(0.37347189,-41.45538)">
    <rect
       y="302.47861"
       x="160.21944"
       height="44.443153"
       width="224.83008"
       id="rect3059"
       style="fill:#ffffff;fill-opacity:1;fill-rule:nonzero;stroke:none" />
    <g
       id="g3070"
       transform="matrix(2.8,0,0,2.8,902.88278,-260.1823)">
      <path
         id="path3002"
         style="font-style:normal;font-variant:normal;font-weight:normal;font-stretch:normal;letter-spacing:normal;word-spacing:normal;text-anchor:start;fill:#000000;stroke:#000000;stroke-width:0;stroke-linecap:butt;stroke-linejoin:miter;stroke-miterlimit:10.43299961;stroke-opacity:1;stroke-dasharray:none;stroke-dashoffset:0"
         d="m -262.27268,204.1906 v 9.44 h -1.728 v 0.752 h 6.88 c 3.136,0 5.52,-1.968 5.52,-5.376 0,-3.504 -2.384,-5.568 -5.552,-5.568 l -0.624,0.752 c 1.04,0 2.368,0.304 3.152,1.424 0.56,0.816 0.688,1.888 0.688,3.376 0,1.744 -0.192,2.576 -0.704,3.296 -0.768,1.088 -2.176,1.344 -3.136,1.344 h -2.336 v -9.44 h 2.336 l 0.624,-0.752 h -6.848 v 0.752 z"
         inkscape:connector-curvature="0" />
      <path
         id="path3004"
         style="font-style:normal;font-variant:normal;font-weight:normal;font-stretch:normal;letter-spacing:normal;word-spacing:normal;text-anchor:start;fill:#000000;stroke:#000000;stroke-width:0;stroke-linecap:butt;stroke-linejoin:miter;stroke-miterlimit:10.43299961;stroke-opacity:1;stroke-dasharray:none;stroke-dashoffset:0"
         d="m -241.92068,210.9106 -0.016,-0.208 -0.016,-0.192 -0.016,-0.192 -0.032,-0.192 -0.032,-0.176 -0.048,-0.192 -0.048,-0.176 -0.064,-0.16 -0.08,-0.176 -0.08,-0.16 -0.08,-0.16 -0.096,-0.144 -0.096,-0.144 -0.112,-0.144 -0.128,-0.144 -0.128,-0.128 -0.128,-0.112 -0.144,-0.112 -0.144,-0.112 -0.16,-0.112 -0.16,-0.096 -0.176,-0.08 -0.176,-0.08 -0.176,-0.08 -0.192,-0.064 -0.208,-0.048 -0.208,-0.048 -0.208,-0.048 -0.224,-0.032 -0.224,-0.016 -0.24,-0.016 -0.24,-0.016 v 0.576 c 0.672,0 1.344,0.256 1.696,0.816 0.336,0.544 0.336,1.424 0.336,2.192 0,1.376 0,3.104 -2.032,3.104 h 0 c -2.016,0 -2.016,-1.728 -2.016,-3.104 0,-0.72 0,-1.536 0.272,-2.08 0.304,-0.592 0.976,-0.928 1.744,-0.928 v -0.576 c -2.608,0 -4.064,1.632 -4.064,3.76 0,1.968 1.408,3.568 4.064,3.568 2.688,0 4.08,-1.616 4.08,-3.568 z"
         inkscape:connector-curvature="0" />
      <path
         id="path3006"
         style="font-style:normal;font-variant:normal;font-weight:normal;font-stretch:normal;letter-spacing:normal;word-spacing:normal;text-anchor:start;fill:#000000;stroke:#000000;stroke-width:0;stroke-linecap:butt;stroke-linejoin:miter;stroke-miterlimit:10.43299961;stroke-opacity:1;stroke-dasharray:none;stroke-dashoffset:0"
         d="m -239.58468,208.7026 v 4.928 h -1.104 v 0.752 c 0.448,-0.016 1.408,-0.048 2.016,-0.048 0.624,0 1.568,0.032 2,0.048 v -0.752 h -1.088 v -3.328 c 0,-1.744 1.376,-2.528 2.368,-2.528 0.544,0 0.896,0.32 0.896,1.552 v 4.304 h -1.104 v 0.752 c 0.448,-0.016 1.408,-0.048 2.016,-0.048 0.608,0 1.552,0.032 2,0.048 v -0.752 h -1.088 v -3.328 c 0,-1.744 1.376,-2.528 2.368,-2.528 0.544,0 0.896,0.32 0.896,1.552 v 4.304 h -1.104 v 0.752 c 0.448,-0.016 1.408,-0.048 2.016,-0.048 0.608,0 1.552,0.032 2,0.048 v -0.752 h -1.104 v -4.128 c 0,-1.648 -0.8,-2.304 -2.448,-2.304 -1.456,0 -2.288,0.8 -2.704,1.536 -0.32,-1.488 -1.776,-1.536 -2.384,-1.536 -1.392,0 -2.288,0.72 -2.8,1.728 v -1.728 l -2.752,0.128 v 0.752 c 0.992,0 1.104,0 1.104,0.624 z"
         inkscape:connector-curvature="0" />
      <path
         id="path3008"
         style="font-style:normal;font-variant:normal;font-weight:normal;font-stretch:normal;letter-spacing:normal;word-spacing:normal;text-anchor:start;fill:#000000;stroke:#000000;stroke-width:0;stroke-linecap:butt;stroke-linejoin:miter;stroke-miterlimit:10.43299961;stroke-opacity:1;stroke-dasharray:none;stroke-dashoffset:0"
         d="m -222.56068,207.1986 -2.768,0.128 v 0.752 c 0.944,0 1.056,0 1.056,0.624 v 4.928 h -1.104 v 0.752 c 0.496,-0.016 1.28,-0.048 1.952,-0.048 0.48,0 1.28,0.032 1.856,0.048 v -0.752 h -0.992 z"
         inkscape:connector-curvature="0" />
      <path
         id="path3010"
         style="font-style:normal;font-variant:normal;font-weight:normal;font-stretch:normal;letter-spacing:normal;word-spacing:normal;text-anchor:start;fill:#000000;stroke:#000000;stroke-width:0;stroke-linecap:butt;stroke-linejoin:miter;stroke-miterlimit:10.43299961;stroke-opacity:1;stroke-dasharray:none;stroke-dashoffset:0"
         d="m -222.40068,204.5426 0,-0.064 0,-0.064 -0.016,-0.064 0,-0.064 -0.016,-0.064 -0.016,-0.048 -0.016,-0.064 -0.032,-0.064 -0.016,-0.048 -0.032,-0.048 -0.032,-0.064 -0.032,-0.048 -0.032,-0.048 -0.048,-0.048 -0.032,-0.048 -0.048,-0.032 -0.032,-0.048 -0.048,-0.032 -0.048,-0.048 -0.048,-0.032 -0.064,-0.032 -0.048,-0.016 -0.048,-0.032 -0.064,-0.032 -0.048,-0.016 -0.064,-0.016 -0.048,-0.016 -0.064,-0.016 -0.064,-0.016 -0.064,0 -0.048,-0.016 -0.064,0 c -0.688,0 -1.248,0.56 -1.248,1.248 0,0.688 0.56,1.248 1.248,1.248 0.656,0 1.232,-0.544 1.232,-1.248 z"
         inkscape:connector-curvature="0" />
      <path
         id="path3012"
         style="font-style:normal;font-variant:normal;font-weight:normal;font-stretch:normal;letter-spacing:normal;word-spacing:normal;text-anchor:start;fill:#000000;stroke:#000000;stroke-width:0;stroke-linecap:butt;stroke-linejoin:miter;stroke-miterlimit:10.43299961;stroke-opacity:1;stroke-dasharray:none;stroke-dashoffset:0"
         d="m -219.21668,208.7026 v 4.928 h -1.104 v 0.752 c 0.448,-0.016 1.408,-0.048 2.016,-0.048 0.608,0 1.552,0.032 2,0.048 v -0.752 h -1.104 v -3.328 c 0,-1.744 1.376,-2.528 2.384,-2.528 0.544,0 0.88,0.336 0.88,1.552 v 4.304 h -1.104 v 0.752 c 0.448,-0.016 1.408,-0.048 2,-0.048 0.624,0 1.568,0.032 2.016,0.048 v -0.752 h -1.104 v -4.128 c 0,-1.68 -0.864,-2.304 -2.448,-2.304 -1.536,0 -2.384,0.912 -2.8,1.728 v -1.728 l -2.736,0.128 v 0.752 c 0.992,0 1.104,0 1.104,0.624 z"
         inkscape:connector-curvature="0" />
      <path
         id="path3014"
         style="font-style:normal;font-variant:normal;font-weight:normal;font-stretch:normal;letter-spacing:normal;word-spacing:normal;text-anchor:start;fill:#000000;stroke:#000000;stroke-width:0;stroke-linecap:butt;stroke-linejoin:miter;stroke-miterlimit:10.43299961;stroke-opacity:1;stroke-dasharray:none;stroke-dashoffset:0"
         d="m -204.88068,213.1506 0,0.096 0,0.096 0,0.048 0,0.064 0.016,0.048 0,0.048 0.016,0.048 0.016,0.064 0.016,0.048 0.016,0.048 0.032,0.048 0.016,0.048 0.032,0.048 0.048,0.048 0.032,0.048 0.048,0.048 0.048,0.032 0.032,0.016 0.032,0.032 0.032,0.016 0.032,0.016 0.032,0.016 0.032,0.016 0.048,0.016 0.032,0.016 0.048,0.016 0.032,0.016 0.048,0.016 0.048,0.016 0.048,0.016 0.048,0 0.048,0.016 0.064,0.016 0.048,0 0.064,0.016 0.064,0 0.064,0.016 0.064,0 0.064,0 0.064,0.016 0.08,0 0.064,0 0.08,0 h 0.768 c 0.32,0 0.512,0 0.512,-0.384 0,-0.368 -0.208,-0.368 -0.416,-0.368 -0.976,-0.016 -0.976,-0.224 -0.976,-0.592 v -3.424 c 0,-1.424 -1.136,-2.464 -3.504,-2.464 -0.912,0 -2.848,0.064 -2.848,1.472 0,0.704 0.56,1.008 0.992,1.008 0.48,0 0.992,-0.336 0.992,-1.008 0,-0.48 -0.304,-0.752 -0.352,-0.784 0.448,-0.096 0.96,-0.112 1.152,-0.112 1.2,0 1.76,0.672 1.76,1.888 v 0.544 0.496 1.504 c 0,1.536 -1.472,1.744 -1.872,1.744 -0.816,0 -1.456,-0.56 -1.456,-1.264 0,-1.712 2.528,-1.936 3.328,-1.984 h 0 v -0.496 c -1.136,0.048 -5.184,0.192 -5.184,2.496 0,1.536 1.968,1.824 3.072,1.824 1.28,0 2.032,-0.656 2.384,-1.328 z"
         inkscape:connector-curvature="0" />
      <path
         id="path3016"
         style="font-style:normal;font-variant:normal;font-weight:normal;font-stretch:normal;letter-spacing:normal;word-spacing:normal;text-anchor:start;fill:#000000;stroke:#000000;stroke-width:0;stroke-linecap:butt;stroke-linejoin:miter;stroke-miterlimit:10.43299961;stroke-opacity:1;stroke-dasharray:none;stroke-dashoffset:0"
         d="m -200.11268,208.7026 v 4.928 h -1.104 v 0.752 c 0.448,-0.016 1.408,-0.048 2.016,-0.048 0.608,0 1.552,0.032 2,0.048 v -0.752 h -1.104 v -3.328 c 0,-1.744 1.376,-2.528 2.384,-2.528 0.544,0 0.88,0.336 0.88,1.552 v 4.304 h -1.104 v 0.752 c 0.448,-0.016 1.408,-0.048 2,-0.048 0.624,0 1.568,0.032 2.016,0.048 v -0.752 h -1.104 v -4.128 c 0,-1.68 -0.864,-2.304 -2.448,-2.304 -1.536,0 -2.384,0.912 -2.8,1.728 v -1.728 l -2.736,0.128 v 0.752 c 0.992,0 1.104,0 1.104,0.624 z"
         inkscape:connector-curvature="0" />
      <path
         id="path3018"
         style="font-style:normal;font-variant:normal;font-weight:normal;font-stretch:normal;letter-spacing:normal;word-spacing:normal;text-anchor:start;fill:#000000;stroke:#000000;stroke-width:0;stroke-linecap:butt;stroke-linejoin:miter;stroke-miterlimit:10.43299961;stroke-opacity:1;stroke-dasharray:none;stroke-dashoffset:0"
         d="m -190.62468,208.0466 v 4.368 c 0,1.712 1.392,2.064 2.528,2.064 1.216,0 1.92,-0.912 1.92,-2.08 v -0.848 h -0.752 v 0.816 c 0,1.088 -0.496,1.472 -0.944,1.472 -0.928,0 -0.928,-1.024 -0.928,-1.392 v -4.4 h 2.32 v -0.752 h -2.32 v -3.04 h -0.752 c -0.016,1.6 -0.8,3.168 -2.368,3.216 v 0.576 z"
         inkscape:connector-curvature="0" />
    </g>
  </g>
</svg>
